<svg width="122" height="118" viewBox="0 0 122 118" fill="none" xmlns="http://www.w3.org/2000/svg">
<g opacity="0.5">
<path d="M60.6672 117.231C94.1728 117.231 121.334 102.924 121.334 85.2763C121.334 67.6284 94.1728 53.322 60.6672 53.322C27.1616 53.322 0 67.6284 0 85.2763C0 102.924 27.1616 117.231 60.6672 117.231Z" fill="#F0F0F0"/>
<path d="M60.771 97.6023C70.1285 97.6023 77.7142 93.1299 77.7142 87.6129C77.7142 82.096 70.1285 77.6236 60.771 77.6236C51.4136 77.6236 43.8279 82.096 43.8279 87.6129C43.8279 93.1299 51.4136 97.6023 60.771 97.6023Z" fill="#E0E0E0"/>
<path d="M32.2042 97.9502C42.8984 97.9502 51.5677 93.3102 51.5677 87.5864C51.5677 81.8627 42.8984 77.2226 32.2042 77.2226C21.5099 77.2226 12.8406 81.8627 12.8406 87.5864C12.8406 93.3102 21.5099 97.9502 32.2042 97.9502Z" fill="#E0E0E0"/>
<path d="M86.5149 97.9734C97.4877 97.9734 106.383 93.3334 106.383 87.6096C106.383 81.8859 97.4877 77.2458 86.5149 77.2458C75.5422 77.2458 66.647 81.8859 66.647 87.6096C66.647 93.3334 75.5422 97.9734 86.5149 97.9734Z" fill="#E0E0E0"/>
<path d="M97.9441 76.6066C97.9441 76.6066 97.9103 72.4483 99.5274 69.0176C101.145 65.5869 103.651 63.2609 106.186 62.7351C108.72 62.2093 111.076 64.3575 108.525 66.349C105.975 68.3405 101.316 70.6347 99.816 77.0925L97.9441 76.6066Z" fill="#61C589"/>
<path opacity="0.15" d="M97.9441 76.6066C97.9441 76.6066 97.9103 72.4483 99.5274 69.0176C101.145 65.5869 103.651 63.2609 106.186 62.7351C108.72 62.2093 111.076 64.3575 108.525 66.349C105.975 68.3405 101.316 70.6347 99.816 77.0925L97.9441 76.6066Z" fill="black"/>
<path d="M98.5654 75.4409H98.5394C98.5042 75.4309 98.4742 75.4073 98.4557 75.3751C98.4373 75.3428 98.4319 75.3045 98.4406 75.2683C100.333 68.136 105.138 64.6469 107.413 63.8158C107.43 63.8095 107.448 63.8067 107.466 63.8075C107.484 63.8084 107.502 63.8129 107.518 63.8208C107.535 63.8287 107.55 63.8398 107.562 63.8535C107.574 63.8673 107.583 63.8833 107.589 63.9008C107.596 63.918 107.598 63.9364 107.597 63.9547C107.597 63.973 107.592 63.991 107.584 64.0076C107.577 64.0242 107.566 64.039 107.552 64.0512C107.539 64.0634 107.523 64.0728 107.506 64.0787C105.278 64.9045 100.567 68.3272 98.7084 75.34C98.6987 75.3705 98.6795 75.3969 98.6536 75.4152C98.6278 75.4334 98.5968 75.4424 98.5654 75.4409Z" fill="white"/>
<path d="M99.3272 81.0702C99.3935 80.3966 99.3442 79.7164 99.1816 79.0601C99.0204 78.3591 98.6044 77.6899 98.5732 76.9597C98.5841 76.6496 98.6549 76.3446 98.7816 76.0626C98.9083 75.7805 99.0885 75.5268 99.3116 75.3161C99.7302 74.9072 100.287 74.6204 100.57 74.1026C100.853 73.5848 100.796 72.9236 100.931 72.3341C101.083 71.6794 101.478 71.1107 102.033 70.7488C102.589 70.3869 103.26 70.2603 103.906 70.3957C104.506 70.5232 105.036 70.8657 105.585 71.1419C106.13 71.4524 106.758 71.5762 107.376 71.495C108.05 71.3646 108.734 71.2908 109.42 71.2747C110.587 71.2747 112.059 71.6809 112.459 72.9422C112.572 73.2515 112.583 73.5899 112.49 73.9061L112.475 73.9459C112.137 74.8009 111.071 74.9735 110.395 75.3931C110.207 75.5073 109.896 75.6586 109.825 75.9029C109.755 76.1472 109.95 76.4526 110.046 76.6676C110.306 77.2173 110.655 77.7484 110.688 78.375C110.735 79.2672 110.002 80.1275 109.266 80.4993C108.543 80.8347 107.747 80.9763 106.955 80.9109C106.563 80.8949 106.136 80.8604 105.814 81.0888C105.681 81.199 105.572 81.3361 105.494 81.4915C105.415 81.6469 105.369 81.8171 105.359 81.9916C105.317 82.3368 105.359 82.6899 105.317 83.0351C105.25 83.5842 105.039 84.1047 104.708 84.5424C104.376 84.9801 103.936 85.3188 103.432 85.5232C102.593 85.8476 101.665 85.8372 100.832 85.494C100.474 85.3151 100.161 85.0544 99.9171 84.7321C99.6732 84.4098 99.5051 84.0345 99.426 83.6352C99.2803 82.7886 99.2471 81.9258 99.3272 81.0702V81.0702Z" fill="#61C589"/>
<path d="M99.6104 83.1148C99.5766 83.1095 99.5461 83.0911 99.5252 83.0634C99.5044 83.0357 99.4949 83.0008 99.4986 82.9661C100.63 74.7213 108.731 72.5413 110.678 72.443C110.712 72.4423 110.745 72.4551 110.771 72.4789C110.796 72.5027 110.811 72.5355 110.813 72.5705C110.814 72.5879 110.811 72.6053 110.805 72.6217C110.799 72.6381 110.79 72.6531 110.779 72.6659C110.767 72.6788 110.753 72.6891 110.738 72.6964C110.722 72.7037 110.705 72.7079 110.688 72.7085C108.788 72.8041 100.866 74.9364 99.769 83.0033C99.767 83.0218 99.7611 83.0397 99.7517 83.0557C99.7423 83.0717 99.7297 83.0854 99.7146 83.096C99.6996 83.1066 99.6825 83.1137 99.6645 83.117C99.6465 83.1202 99.6281 83.1195 99.6104 83.1148V83.1148Z" fill="white"/>
<path d="M108.278 77.9342C108.253 77.932 108.228 77.9218 108.208 77.905C107.366 77.3267 106.41 76.945 105.408 76.7871C104.405 76.6292 103.381 76.699 102.408 76.9916C102.373 77.0007 102.337 76.9955 102.306 76.9771C102.275 76.9587 102.253 76.9285 102.244 76.8933C102.235 76.8581 102.24 76.8207 102.258 76.7893C102.276 76.758 102.306 76.7352 102.34 76.7261C103.352 76.423 104.417 76.3523 105.459 76.5189C106.501 76.6855 107.494 77.0854 108.367 77.6899C108.394 77.7115 108.412 77.7431 108.416 77.7779C108.42 77.8128 108.411 77.848 108.39 77.8758C108.377 77.8941 108.361 77.9089 108.341 77.9191C108.322 77.9293 108.3 77.9345 108.278 77.9342V77.9342Z" fill="white"/>
<path d="M21.6906 75.0134C22.1716 73.1547 22.3874 69.8992 21.3033 66.3331C20.1463 62.5333 18.1159 59.6656 15.8176 59.8328C13.6753 59.9869 13.4777 62.8573 15.7812 66.5907C17.3983 69.2088 18.901 72.4032 19.1766 75.6985L19.9565 80.0506L21.6906 75.0134Z" fill="#61C589"/>
<path d="M21.6906 75.0134C22.1716 73.1547 22.3874 69.8992 21.3033 66.3331C20.1463 62.5333 18.1159 59.6656 15.8176 59.8328C13.6753 59.9869 13.4777 62.8573 15.7812 66.5907C17.3983 69.2088 18.901 72.4032 19.1766 75.6985L19.9565 80.0506L21.6906 75.0134Z" fill="#61C589"/>
<g opacity="0.15">
<path opacity="0.15" d="M21.6906 75.0134C22.1716 73.1547 22.3874 69.8992 21.3033 66.3331C20.1463 62.5333 18.1159 59.6656 15.8176 59.8328C13.6753 59.9869 13.4777 62.8573 15.7812 66.5907C17.3983 69.2088 18.901 72.4032 19.1766 75.6985L19.9565 80.0506L21.6906 75.0134Z" fill="black"/>
</g>
<path d="M21.0354 76.341C21.0096 76.3317 20.9872 76.3145 20.9714 76.2916C20.9556 76.2688 20.9471 76.2415 20.947 76.2136C20.895 70.563 18.9347 64.161 16.3895 61.3198C16.3647 61.2944 16.3508 61.2601 16.3508 61.2242C16.3508 61.1884 16.3647 61.154 16.3895 61.1286C16.4016 61.1158 16.4162 61.1056 16.4322 61.0986C16.4483 61.0916 16.4656 61.088 16.4831 61.088C16.5006 61.088 16.5179 61.0916 16.5339 61.0986C16.55 61.1056 16.5646 61.1158 16.5767 61.1286C19.1765 64.0123 21.1524 70.494 21.2044 76.203C21.2047 76.2207 21.2016 76.2384 21.1953 76.255C21.189 76.2715 21.1795 76.2867 21.1674 76.2995C21.1553 76.3123 21.1409 76.3226 21.1249 76.3297C21.109 76.3368 21.0918 76.3407 21.0744 76.341C21.0615 76.3428 21.0483 76.3428 21.0354 76.341Z" fill="white"/>
<path d="M20.3128 81.0755C19.0907 81.7478 17.7174 82.0811 16.3298 82.042C13.9302 82.0049 13.093 80.6825 13.093 80.6825C13.093 80.6825 14.3929 78.606 15.8254 78.213C14.3346 78.2884 12.8668 78.6196 11.4837 79.1929C11.4837 79.1929 10.0538 78.9645 9.86402 76.6384C9.86402 76.6384 10.9352 75.4515 13.8938 75.2311C13.8938 75.2311 12.2455 74.4823 9.64824 74.7C9.45065 74.7425 9.14387 71.7261 9.12827 70.3586C9.11267 68.9911 9.63264 69.0946 10.6882 68.9991C11.7437 68.9035 15.2249 69.3389 15.7631 70.0214C16.3012 70.7038 16.283 72.7032 16.283 72.7032C16.283 72.7032 17.1488 71.442 17.1046 70.2258C18.038 70.282 18.9466 70.5544 19.7616 71.0224C20.0034 71.1631 19.9748 73.1706 19.1038 74.6257C19.9509 73.8993 20.5972 72.9592 20.9783 71.8987C22.2782 73.0829 22.5044 74.3761 22.5044 75.5152C22.5148 76.8482 22.0859 79.6151 20.3128 81.0755Z" fill="#61C589"/>
<path d="M20.2894 81.2109C20.2644 81.2064 20.2412 81.1948 20.2223 81.1774C20.2035 81.1601 20.1898 81.1376 20.1828 81.1127C18.9791 76.7792 12.7603 70.8923 10.3347 69.947C10.3019 69.934 10.2756 69.9082 10.2614 69.8753C10.2473 69.8424 10.2465 69.8052 10.2593 69.7717C10.2726 69.7387 10.2978 69.7121 10.3296 69.6973C10.3615 69.6825 10.3977 69.6806 10.4309 69.6921C12.8955 70.6533 19.2157 76.6358 20.4402 81.0383C20.4499 81.0732 20.4458 81.1105 20.4288 81.1423C20.4118 81.1741 20.3832 81.1978 20.3492 81.2083C20.3296 81.2131 20.3093 81.214 20.2894 81.2109V81.2109Z" fill="white"/>
<path d="M46.7896 22.4378C48.1935 25.4118 51.121 30.8101 51.121 30.8101C53.0786 31.2641 57.449 31.6067 59.2351 31.8377C59.5488 31.8776 59.8661 31.8013 60.1294 31.6226C60.8314 31.1526 61.3747 31.0782 62.1157 30.826C62.6954 30.6215 62.9398 30.3401 63.049 30.4463C63.1609 30.5795 63.2174 30.7522 63.2062 30.9274C63.195 31.1026 63.1171 31.2663 62.9892 31.3836C62.7117 31.6537 62.4036 31.8891 62.0715 32.0846C62.8641 32.284 63.6905 32.2985 64.4893 32.1271C66.0336 31.7129 66.7642 32.4723 65.7191 34.185C65.3447 34.801 63.8706 35.7782 60.8834 35.5127C60.0228 35.4357 58.6085 35.3241 57.5036 35.3268C54.7061 35.3268 52.9643 35.3693 50.4164 35.279C49.3141 35.2392 48.8565 35.1595 48.0636 34.0575C45.7192 30.8815 43.5493 27.5749 41.564 24.1531V17.8998C43.9064 17.8255 45.5885 19.8807 46.7896 22.4378Z" fill="#FFA8A7"/>
<path d="M81.8719 16.3783C79.909 16.6757 78.5051 18.3088 77.2311 22.5759C76.2276 25.9375 74.6677 29.1744 73.6928 32.5042C70.833 32.4457 67.6638 32.2519 65.0249 32.0713C64.6617 32.0576 64.3156 31.9105 64.05 31.6571C63.3493 31.1376 62.5833 30.7169 61.7725 30.4065C61.3176 30.2232 60.8626 29.6656 60.522 29.8462C60.1814 30.0267 60.327 30.7331 60.5896 31.126C60.9428 31.4898 61.3304 31.8171 61.7465 32.1032C60.5766 32.2307 59.7967 32.0368 58.6267 31.8377C57.0668 31.5721 55.3249 31.7049 56.6327 34.0097C57.527 35.587 60.5324 36.134 62.3263 36.1659C63.2076 36.1818 64.6323 36.1659 65.8829 36.2774C67.9835 36.4712 70.9681 37.0474 74.6833 37.3687C76.147 37.4962 76.9296 37.2253 77.5925 35.8844L77.8291 35.3825C80.6655 29.4054 81.7445 27.0554 83.1536 21.4288C82.722 19.9551 82.2826 17.852 81.8719 16.3783Z" fill="#B16668"/>
<path d="M82.7895 16.1579C82.7895 16.1579 80.3846 16.2164 79.1497 17.6927C77.4702 19.6948 75.2629 27.4059 75.2629 27.4059C75.2629 27.4059 76.4719 29.4559 81.4323 28.7814L82.7895 16.1579Z" fill="#61C589"/>
<path opacity="0.1" d="M82.7895 16.1579C82.7895 16.1579 80.3846 16.2164 79.1497 17.6927C77.4702 19.6948 75.2629 27.4059 75.2629 27.4059C75.2629 27.4059 76.4719 29.4559 81.4323 28.7814L82.7895 16.1579Z" fill="black"/>
<path d="M89.7625 33.723C88.6446 33.6274 88.2286 33.7469 87.2875 33.4575C87.6631 33.3505 88.0226 33.1915 88.356 32.9848C88.5796 32.8149 89.1853 31.9625 88.72 31.7474C88.6265 31.7142 88.5248 31.7142 88.4314 31.7474C88.1558 31.8324 87.9114 31.9678 87.6254 32.0528C86.9235 32.2679 86.1617 32.1298 85.4364 32.2493C85.1946 32.2891 84.958 32.3555 84.7136 32.3794C84.1618 32.418 83.6075 32.3688 83.0705 32.2334C81.6744 31.7023 73.5525 28.8876 73.5525 28.8876C72.2682 27.0156 70.3339 23.4522 69.294 21.8935C67.6873 19.5037 66.9541 18.0087 64.3387 17.706C63.9019 19.1957 63.148 20.21 62.8594 21.9174C63.9279 23.3911 69.7697 31.8775 69.9855 32.2041C70.5523 33.0592 70.7655 33.407 71.7482 33.7044C72.731 34.0018 79.3112 35.0533 82.7637 35.749C83.6815 35.9482 84.646 36.4792 85.0334 36.5881C87.9764 37.4272 89.6715 37.5281 90.7531 36.2403C92.4793 34.201 91.2782 33.8558 89.7625 33.723Z" fill="#FFBDA7"/>
<path d="M63.6418 16.7581C66.9566 16.3465 67.9783 18.4575 69.3614 20.7995C71.0279 23.6407 72.4552 26.4819 73.8124 28.9062C76.0404 29.8196 82.8052 31.9811 82.8052 31.9811C82.965 33.3001 82.7062 34.6366 82.0668 35.7941C80.8007 35.6667 76.3004 34.9338 72.775 34.3018C71.2749 34.0363 70.8355 34.0018 69.8814 32.7405C68.1603 30.4675 65.8127 26.9944 63.712 24.201C62.1911 22.1935 63.6418 17.783 63.6418 16.7581Z" fill="#455A64"/>
<path d="M30.4443 38.792C30.5502 38.1184 30.7636 37.4672 31.0761 36.8642C31.4635 36.0889 32.038 35.3295 32.8622 35.1091C33.3077 35.0065 33.772 35.0285 34.2063 35.1728C34.5911 35.2843 34.9473 35.5631 35.3528 35.4224C37.9657 34.5249 41.4546 32.5015 44.0597 31.3836C45.6768 27.9131 47.7203 24.4054 48.4794 23.0034C50.3825 19.4957 51.9138 18.1654 53.7597 17.783C54.4018 19.2089 54.8386 21.3677 53.3255 24.2461C52.5456 25.8234 50.8765 29.3735 49.2048 32.5679C47.6865 35.4649 46.2643 35.741 44.9488 36.1712C42.4322 36.9944 39.8973 37.7086 37.6511 38.4442C36.3148 38.8823 34.4273 39.3868 33.7513 39.6178C33.1171 39.8417 32.4538 39.9679 31.7832 39.9922C31.3179 40.0082 30.7225 40.1754 30.4833 39.6311C30.3889 39.3667 30.3691 39.0806 30.4261 38.8053L30.4443 38.792Z" fill="#FFBDA7"/>
<path d="M51.2822 68.0883C51.3472 64.9603 52.2676 62.6422 52.3404 61.7739C52.3404 61.7739 52.1142 43.1866 52.1142 40.1675L67.6352 39.5222C67.6352 39.5222 67.1386 59.0336 67.1386 61.6146C67.1386 64.1956 65.7165 75.4223 65.0588 80.4675C64.1618 81.665 63.1141 82.1748 61.7024 80.9985C61.7024 80.9985 61.5854 80.2869 61.4008 77.9343C61.1902 75.2391 60.457 70.7012 60.4337 68.0618C60.3999 64.809 60.6936 63.0166 60.7794 61.4606C60.886 59.6682 60.4648 47.5812 60.4648 47.5812C60.4648 47.5812 58.5202 59.1106 58.0366 63.0272C57.4828 67.5121 55.6967 79.2699 55.6967 82.0049C55.6967 82.4935 55.6967 83.067 55.6967 83.6751C55.6967 85.1541 55.6577 85.5338 55.8891 86.118C56.2947 87.1164 52.8265 87.7457 52.6653 87.0341L52.291 84.0973V84.0123V82.1536C52.2884 79.3655 51.1912 72.6236 51.2822 68.0883Z" fill="#FFBDA7"/>
<path d="M71.9039 85.6692C71.9982 85.9567 71.9815 86.2702 71.8571 86.5455C71.7375 86.811 70.4272 87.5572 68.6593 87.435C67.3498 87.3402 66.0888 86.8901 65.0065 86.1313C64.3332 85.6745 63.6312 85.6002 62.7577 85.5391C61.8841 85.478 60.7324 85.0426 60.5426 84.623C60.3528 84.2035 60.5712 83.4865 60.5712 83.4865L71.9039 85.6692Z" fill="#37474F"/>
<path d="M64.7753 80.0399L64.9157 80.0081C64.9919 79.9908 65.0709 79.9908 65.1471 80.0081C65.2333 80.0331 65.3097 80.0851 65.3655 80.1568C65.5378 80.3836 65.6893 80.6263 65.8179 80.8817C66.1871 81.4977 66.9644 82.0075 67.8146 82.4749C68.3917 82.7909 68.9559 83.0378 69.5538 83.3113C70.1518 83.5848 70.9682 83.76 71.4439 84.0893C72.1355 84.5646 72.2239 85.7648 71.4439 86.2375C70.7628 86.6464 68.9689 87.0898 67.0892 86.5455C66.0649 86.2481 64.9287 85.1302 63.582 85.024C62.7267 84.955 61.1122 84.7107 60.561 84.0468C60.3582 83.7521 60.6286 82.8201 60.8522 82.0155C61.0966 81.1366 61.3722 79.7611 61.6711 79.8381C61.6711 80.0107 61.6503 80.0559 61.7621 80.1727C61.8739 80.2895 62.0091 80.3533 62.1235 80.4542C62.3209 80.6551 62.4812 80.8908 62.5967 81.1498C62.6443 81.2646 62.7299 81.3586 62.8385 81.4154C62.9841 81.4711 63.0984 81.3782 63.218 81.3198C63.3807 81.2415 63.5662 81.2283 63.738 81.2826C63.722 81.1077 63.6916 80.9345 63.647 80.7648C63.6316 80.7111 63.6316 80.6539 63.647 80.6002C63.6688 80.5467 63.7072 80.5019 63.7562 80.4727C64.0635 80.2591 64.4103 80.1118 64.7753 80.0399V80.0399Z" fill="#61C589"/>
<path opacity="0.3" d="M64.7753 80.0399L64.9157 80.0081C64.9919 79.9908 65.0709 79.9908 65.1471 80.0081C65.2333 80.0331 65.3097 80.0851 65.3655 80.1568C65.5378 80.3836 65.6893 80.6263 65.8179 80.8817C66.1871 81.4977 66.9644 82.0075 67.8146 82.4749C68.3917 82.7909 68.9559 83.0378 69.5538 83.3113C70.1518 83.5848 70.9682 83.76 71.4439 84.0893C72.1355 84.5646 72.2239 85.7648 71.4439 86.2375C70.7628 86.6464 68.9689 87.0898 67.0892 86.5455C66.0649 86.2481 64.9287 85.1302 63.582 85.024C62.7267 84.955 61.1122 84.7107 60.561 84.0468C60.3582 83.7521 60.6286 82.8201 60.8522 82.0155C61.0966 81.1366 61.3722 79.7611 61.6711 79.8381C61.6711 80.0107 61.6503 80.0559 61.7621 80.1727C61.8739 80.2895 62.0091 80.3533 62.1235 80.4542C62.3209 80.6551 62.4812 80.8908 62.5967 81.1498C62.6443 81.2646 62.7299 81.3586 62.8385 81.4154C62.9841 81.4711 63.0984 81.3782 63.218 81.3198C63.3807 81.2415 63.5662 81.2283 63.738 81.2826C63.722 81.1077 63.6916 80.9345 63.647 80.7648C63.6316 80.7111 63.6316 80.6539 63.647 80.6002C63.6688 80.5467 63.7072 80.5019 63.7562 80.4727C64.0635 80.2591 64.4103 80.1118 64.7753 80.0399V80.0399Z" fill="black"/>
<path d="M59.2507 90.7834C59.3573 90.8843 59.3261 91.58 59.2091 91.7553C59.0921 91.9305 58.3746 92.5731 57.0902 92.6661C55.8631 92.7563 54.766 92.5864 54.0458 92.1191C53.3257 91.6517 52.9773 91.1366 52.9097 90.4223C52.8421 89.708 52.9097 89.0203 52.5847 88.4706C52.2598 87.921 51.7866 87.3899 51.68 87.1138C51.4486 86.5163 51.68 85.6586 51.68 85.6586L59.2507 90.7834Z" fill="#37474F"/>
<path d="M55.8915 84.5487C55.9 84.8201 55.9482 85.0886 56.0345 85.3453C56.2212 85.8987 56.4736 86.4266 56.7859 86.9173C56.9419 87.1756 57.1156 87.4223 57.3059 87.6555C57.675 88.1042 58.1378 88.476 58.5304 88.9088C58.9493 89.3177 59.2174 89.8616 59.2895 90.4489C59.3415 91.4313 58.2964 91.7765 57.4904 91.912C56.6206 92.0679 55.7275 92.0216 54.8776 91.7765C54.4305 91.6574 54.0265 91.4092 53.7139 91.0617C53.4013 90.7141 53.1934 90.282 53.1149 89.8169C53.0707 89.5514 53.0863 89.2646 53.0551 88.9911C52.9492 88.363 52.6919 87.7716 52.3064 87.2704C52.0829 86.9796 51.8903 86.6654 51.7318 86.3331C51.4718 85.725 51.6824 85.04 51.8436 84.4345C51.9814 83.9035 52.14 83.3167 52.3194 83.3724C52.3194 83.638 52.3194 83.6725 52.5092 83.8557C52.7509 84.0894 52.7691 84.4399 53.0161 84.6523C52.9336 84.4262 52.8735 84.1923 52.8367 83.9539C52.8212 83.8573 52.8406 83.7582 52.8913 83.6751C52.9765 83.5984 53.078 83.543 53.1877 83.5131C53.5671 83.3847 53.9582 83.2958 54.355 83.2476C54.7329 83.1839 55.1185 83.1839 55.4964 83.2476C55.6089 83.2684 55.7109 83.3285 55.785 83.4176C55.8509 83.5162 55.8862 83.6327 55.8863 83.7521C55.8967 83.8796 55.8837 84.2858 55.8915 84.5487Z" fill="#61C589"/>
<path opacity="0.3" d="M55.8915 84.5487C55.9 84.8201 55.9482 85.0886 56.0345 85.3453C56.2212 85.8987 56.4736 86.4266 56.7859 86.9173C56.9419 87.1756 57.1156 87.4223 57.3059 87.6555C57.675 88.1042 58.1378 88.476 58.5304 88.9088C58.9493 89.3177 59.2174 89.8616 59.2895 90.4489C59.3415 91.4313 58.2964 91.7765 57.4904 91.912C56.6206 92.0679 55.7275 92.0216 54.8776 91.7765C54.4305 91.6574 54.0265 91.4092 53.7139 91.0617C53.4013 90.7141 53.1934 90.282 53.1149 89.8169C53.0707 89.5514 53.0863 89.2646 53.0551 88.9911C52.9492 88.363 52.6919 87.7716 52.3064 87.2704C52.0829 86.9796 51.8903 86.6654 51.7318 86.3331C51.4718 85.725 51.6824 85.04 51.8436 84.4345C51.9814 83.9035 52.14 83.3167 52.3194 83.3724C52.3194 83.638 52.3194 83.6725 52.5092 83.8557C52.7509 84.0894 52.7691 84.4399 53.0161 84.6523C52.9336 84.4262 52.8735 84.1923 52.8367 83.9539C52.8212 83.8573 52.8406 83.7582 52.8913 83.6751C52.9765 83.5984 53.078 83.543 53.1877 83.5131C53.5671 83.3847 53.9582 83.2958 54.355 83.2476C54.7329 83.1839 55.1185 83.1839 55.4964 83.2476C55.6089 83.2684 55.7109 83.3285 55.785 83.4176C55.8509 83.5162 55.8862 83.6327 55.8863 83.7521C55.8967 83.8796 55.8837 84.2858 55.8915 84.5487Z" fill="black"/>
<path d="M56.9161 87.1191C56.5573 86.8536 55.7539 86.8536 55.3146 86.8907C54.8677 86.9301 54.4377 87.0835 54.064 87.3368C54.0097 87.3778 53.9428 87.3974 53.8754 87.392C53.8081 87.3867 53.7449 87.3567 53.6975 87.3076V87.3076C53.6682 87.2806 53.6454 87.2472 53.6306 87.2098C53.6159 87.1725 53.6097 87.1322 53.6125 87.0921C53.6152 87.0519 53.6269 87.0129 53.6465 86.978C53.6662 86.9432 53.6934 86.9133 53.7261 86.8907C54.1352 86.5812 54.6222 86.397 55.13 86.3597C56.2115 86.28 56.5287 86.4712 56.5287 86.4712C56.5287 86.4712 57.0279 86.7951 56.9161 87.1191Z" fill="#BDC3C7"/>
<path d="M57.7402 88.1281C57.2879 87.8625 56.4065 87.8944 55.9671 87.9422C55.528 87.988 55.1084 88.151 54.7504 88.4148C54.6959 88.4553 54.629 88.4745 54.5619 88.4692C54.4947 88.4638 54.4316 88.4342 54.3838 88.3856V88.3856C54.354 88.3588 54.3305 88.3254 54.3153 88.2879C54.3 88.2504 54.2934 88.2099 54.2959 88.1693C54.2984 88.1288 54.31 88.0894 54.3298 88.0542C54.3495 88.019 54.3769 87.9888 54.4098 87.9661C54.8279 87.6427 55.3256 87.4442 55.8476 87.3925C56.9265 87.3155 57.2099 87.5412 57.2099 87.5412C57.3359 87.5918 57.4491 87.6709 57.541 87.7725C57.6328 87.8741 57.7009 87.9957 57.7402 88.1281V88.1281Z" fill="#BDC3C7"/>
<path d="M54.6881 85.3028C55.1434 85.2208 55.6118 85.2601 56.0478 85.417C56.2376 85.5259 56.365 85.8339 56.2402 85.9135C55.8591 85.7554 55.4453 85.697 55.0365 85.7436C54.631 85.7844 54.2353 85.8958 53.8666 86.0729C53.7652 86.1189 53.6663 86.1703 53.5702 86.2269C53.5396 86.2438 53.506 86.2543 53.4713 86.2577C53.4366 86.2611 53.4017 86.2574 53.3684 86.2468C53.3352 86.2361 53.3044 86.2188 53.2779 86.1957C53.2514 86.1727 53.2297 86.1445 53.214 86.1127C53.1887 86.0575 53.1842 85.9947 53.2015 85.9364C53.2188 85.878 53.2566 85.8283 53.3076 85.7967C53.7287 85.5349 54.1991 85.3666 54.6881 85.3028V85.3028Z" fill="#BDC3C7"/>
<path d="M67.0162 81.989C66.9544 81.8692 66.8642 81.7671 66.7538 81.692C66.6435 81.6168 66.5165 81.5711 66.3845 81.5588C65.9945 81.4845 65.3081 81.7766 64.8818 82.135C64.8427 82.1687 64.8122 82.2115 64.7926 82.2597C64.7731 82.3079 64.7651 82.3602 64.7695 82.4122C64.7738 82.4642 64.7903 82.5144 64.8175 82.5586C64.8447 82.6028 64.8819 82.6396 64.926 82.6661C64.9832 82.6987 65.049 82.7124 65.1142 82.7052C65.1793 82.6981 65.2407 82.6705 65.2899 82.6263C65.7629 82.1935 66.3817 81.9651 67.0162 81.989V81.989Z" fill="#BDC3C7"/>
<path d="M68.22 82.6793C68.1359 82.5573 68.0241 82.4578 67.8941 82.3894C67.7642 82.321 67.6201 82.2856 67.4739 82.2864C67.4739 82.2864 66.4574 82.3156 65.8282 82.913C65.7875 82.9456 65.7553 82.9881 65.7347 83.0366C65.714 83.0851 65.7055 83.1381 65.7099 83.1907C65.7142 83.2434 65.7314 83.2942 65.7598 83.3384C65.7881 83.3826 65.8269 83.4189 65.8724 83.4441V83.4441C65.9276 83.476 65.9912 83.4893 66.0542 83.4821C66.1172 83.475 66.1764 83.4477 66.2234 83.4042C66.481 83.1373 66.7945 82.9334 67.1403 82.8079C67.4861 82.6823 67.8552 82.6384 68.22 82.6793V82.6793Z" fill="#BDC3C7"/>
<path d="M69.5539 83.3007C69.4566 83.1876 69.3366 83.0972 69.2019 83.0358C69.0673 82.9744 68.9213 82.9434 68.7739 82.9449C68.1963 82.9814 67.6449 83.2035 67.1984 83.5795C67.1576 83.612 67.1252 83.6543 67.1044 83.7026C67.0835 83.751 67.0747 83.8039 67.0789 83.8565C67.083 83.9092 67.0999 83.96 67.128 84.0043C67.1561 84.0487 67.1946 84.0852 67.24 84.1106V84.1106C67.2954 84.1417 67.3589 84.1546 67.4217 84.1474C67.4845 84.1403 67.5436 84.1135 67.591 84.0708C67.8367 83.7949 68.1421 83.5816 68.483 83.4479C68.8238 83.3141 69.1906 83.2638 69.5539 83.3007Z" fill="#BDC3C7"/>
<path d="M67.635 39.5222C67.635 39.5222 67.6142 52.5865 67.635 54.894C67.6558 57.2014 67.635 61.6146 67.635 63.7495C67.635 63.7495 66.9617 64.9311 63.6989 64.9258C60.4361 64.9205 59.9499 63.9115 59.9499 63.9115L59.8173 53.391L58.9178 64.4186C58.2575 64.8774 57.5123 65.1932 56.7281 65.3466C55.9438 65.5001 55.1371 65.4879 54.3577 65.3108C51.672 64.7187 51.2769 63.9035 51.2769 63.9035L51.7968 39.5727L67.635 39.5222Z" fill="#61C589"/>
<path opacity="0.1" d="M59.8174 53.391L60.2958 48.9327C60.2958 48.9327 62.5342 48.3778 64.0317 47.2254C63.5492 47.823 62.975 48.3368 62.3314 48.7469C61.4215 49.2779 60.9873 49.4824 60.9873 49.4824L60.0566 54.0204L59.9422 62.4271L59.8174 53.391Z" fill="black"/>
<path d="M51.6069 41.7978C53.7362 43.391 63.392 45.1383 67.8741 41.7978C67.8741 41.7978 67.7701 29.0124 67.4192 22.244C67.401 21.9386 67.3828 21.6412 67.3516 21.3491C67.3516 21.2535 67.3282 21.1579 67.3178 21.0624C67.2686 20.6585 67.1931 20.2584 67.0916 19.8648C67.0734 19.7984 67.0552 19.7347 67.0344 19.6683C66.9902 19.5223 66.9434 19.3789 66.8862 19.2381C66.8576 19.1638 66.8264 19.0894 66.7926 19.0177C66.7647 18.9485 66.7326 18.8811 66.6964 18.8159C66.6923 18.8031 66.6871 18.7906 66.6808 18.7788C66.6479 18.7133 66.6115 18.6495 66.5716 18.5876C66.5326 18.5185 66.4936 18.4495 66.4468 18.3805L66.3142 18.1972C66.2648 18.1309 66.2102 18.0671 66.1556 18.0061C66.101 17.945 66.0464 17.8866 65.9918 17.8308L65.8748 17.7193C65.8359 17.6848 65.7968 17.6502 65.7579 17.621C65.7189 17.5918 65.6487 17.5334 65.5967 17.4936C65.4172 17.3638 65.2277 17.2492 65.0299 17.151L64.8635 17.074C64.8505 17.074 64.8323 17.074 64.8245 17.0555L64.6217 16.9785C64.5086 16.9332 64.3932 16.8942 64.2759 16.8616C64.1538 16.8271 64.0316 16.7979 63.9016 16.766C63.7716 16.7342 63.5948 16.766 63.4232 16.766H63.067C62.9448 16.766 62.807 16.766 62.6874 16.7793C61.0105 16.8537 58.6057 17.1298 56.6766 17.3821L56.2996 17.4352L55.9669 17.475C54.6435 17.6529 53.6608 17.7989 53.51 17.8228H53.4892C53.055 17.9344 52.6521 18.0406 52.3297 18.1388C51.4431 18.4044 52.1009 18.1787 51.9059 19.0523C51.334 21.62 51.9995 30.9588 51.9995 30.9588L51.6069 41.7978Z" fill="#F0F0F0"/>
<path d="M57.2278 7.77239L56.6325 8.43888L56.3283 5.00819C56.0872 4.97949 55.843 5.00738 55.6141 5.08976C55.3852 5.17213 55.1777 5.3068 55.0076 5.4835C54.4408 6.07563 54.7476 7.92906 55.4625 9.73203C55.4625 9.73203 56.1515 13.0353 56.4271 13.5796C56.6126 13.9138 56.9156 14.1635 57.2746 14.278L57.2278 7.77239Z" fill="#61C589"/>
<path opacity="0.4" d="M57.2278 7.77239L56.6325 8.43888L56.3283 5.00819C56.0872 4.97949 55.843 5.00738 55.6141 5.08976C55.3852 5.17213 55.1777 5.3068 55.0076 5.4835C54.4408 6.07563 54.7476 7.92906 55.4625 9.73203C55.4625 9.73203 56.1515 13.0353 56.4271 13.5796C56.6126 13.9138 56.9156 14.1635 57.2746 14.278L57.2278 7.77239Z" fill="black"/>
<path d="M57.1501 9.89669C56.8901 10.056 56.5183 9.54353 56.1985 9.20099C55.8787 8.85845 54.831 8.39111 54.3084 9.51432C53.7859 10.6375 54.7686 12.1697 55.5928 12.4352C57.0149 12.8919 57.2281 11.9599 57.2281 11.9599L57.3216 17.2971C58.8114 20.048 63.8446 18.6248 61.9572 16.8165V15.4596C62.6703 15.5126 63.3863 15.5126 64.0994 15.4596C65.1394 15.295 65.5735 14.5568 65.8907 13.4017C66.4107 11.543 66.5927 10.048 66.1507 6.39961C65.6775 2.40068 61.1226 2.3582 58.6632 3.94078C56.2037 5.52335 57.1501 9.89669 57.1501 9.89669Z" fill="#FFBDA7"/>
<path d="M56.5419 2.82287C57.4038 2.44388 58.3047 2.16508 59.2276 1.99175C61.2138 1.55096 63.2365 1.14469 65.0512 0.210017C65.2625 0.068312 65.5108 -0.00481303 65.7636 0.000245824C66.2419 0.0639738 66.4499 0.656114 66.4707 1.15001C66.4871 1.60643 66.4282 2.06242 66.2965 2.49892C66.4411 2.35753 66.6344 2.28016 66.8345 2.28364C67.0346 2.28712 67.2253 2.37117 67.3651 2.5175C67.5013 2.67012 67.6012 2.85277 67.6572 3.05126C67.7131 3.24974 67.7234 3.45872 67.6874 3.66195C67.5704 4.57008 66.8893 5.32419 66.0833 5.7278C65.2581 6.09458 64.3652 6.2757 63.4653 6.25887C62.2076 6.29815 60.9494 6.20293 59.7111 5.97475C59.4157 5.89864 59.1094 5.87617 58.8064 5.90836C58.6548 5.9254 58.5109 5.98576 58.3913 6.08251C58.2718 6.17927 58.1813 6.30849 58.1304 6.45536C57.9978 6.95988 57.8704 10.3959 57.1685 10.4092C57.0411 10.4092 56.5497 9.54883 56.2326 9.23815C55.8296 8.85047 55.4266 5.90836 55.3564 5.36402C55.3459 5.3221 55.3263 5.2831 55.2992 5.24984C54.8494 4.60194 55.3798 3.51325 55.9362 3.16009C56.1309 3.03475 56.3333 2.92212 56.5419 2.82287Z" fill="#61C589"/>
<path opacity="0.4" d="M56.5419 2.82287C57.4038 2.44388 58.3047 2.16508 59.2276 1.99175C61.2138 1.55096 63.2365 1.14469 65.0512 0.210017C65.2625 0.068312 65.5108 -0.00481303 65.7636 0.000245824C66.2419 0.0639738 66.4499 0.656114 66.4707 1.15001C66.4871 1.60643 66.4282 2.06242 66.2965 2.49892C66.4411 2.35753 66.6344 2.28016 66.8345 2.28364C67.0346 2.28712 67.2253 2.37117 67.3651 2.5175C67.5013 2.67012 67.6012 2.85277 67.6572 3.05126C67.7131 3.24974 67.7234 3.45872 67.6874 3.66195C67.5704 4.57008 66.8893 5.32419 66.0833 5.7278C65.2581 6.09458 64.3652 6.2757 63.4653 6.25887C62.2076 6.29815 60.9494 6.20293 59.7111 5.97475C59.4157 5.89864 59.1094 5.87617 58.8064 5.90836C58.6548 5.9254 58.5109 5.98576 58.3913 6.08251C58.2718 6.17927 58.1813 6.30849 58.1304 6.45536C57.9978 6.95988 57.8704 10.3959 57.1685 10.4092C57.0411 10.4092 56.5497 9.54883 56.2326 9.23815C55.8296 8.85047 55.4266 5.90836 55.3564 5.36402C55.3459 5.3221 55.3263 5.2831 55.2992 5.24984C54.8494 4.60194 55.3798 3.51325 55.9362 3.16009C56.1309 3.03475 56.3333 2.92212 56.5419 2.82287Z" fill="black"/>
<path d="M55.5511 5.29233C55.3884 5.48776 55.1563 5.60916 54.9059 5.62983C54.6556 5.65049 54.4074 5.56873 54.2161 5.40253C54.0247 5.23633 53.9059 4.9993 53.8856 4.7436C53.8654 4.48789 53.9455 4.23444 54.1082 4.03902L55.5511 5.29233Z" fill="#61C589"/>
<path opacity="0.4" d="M55.5511 5.29233C55.3884 5.48776 55.1563 5.60916 54.9059 5.62983C54.6556 5.65049 54.4074 5.56873 54.2161 5.40253C54.0247 5.23633 53.9059 4.9993 53.8856 4.7436C53.8654 4.48789 53.9455 4.23444 54.1082 4.03902L55.5511 5.29233Z" fill="black"/>
<path d="M61.9674 15.4623C61.9674 15.4623 59.6276 15.2339 58.819 14.7905C58.3391 14.5356 57.9458 14.1385 57.6907 13.6513C57.8119 14.141 58.0285 14.6007 58.3276 15.0029C58.923 15.7809 61.9674 16.3545 61.9674 16.3545V15.4623Z" fill="#F0997A"/>
<path d="M61.2395 9.29922C61.236 9.39287 61.2055 9.48339 61.152 9.55951C61.0984 9.63562 61.0242 9.69399 60.9384 9.72733C60.8526 9.76067 60.7592 9.76752 60.6696 9.74704C60.5801 9.72655 60.4984 9.67962 60.4348 9.6121C60.3711 9.54457 60.3283 9.45943 60.3117 9.36725C60.2951 9.27508 60.3053 9.17995 60.3412 9.09369C60.3771 9.00743 60.4371 8.93385 60.5136 8.88211C60.5901 8.83037 60.6798 8.80274 60.7716 8.80267C60.8343 8.80371 60.8962 8.81739 60.9537 8.84294C61.0112 8.86849 61.0632 8.9054 61.1067 8.95155C61.1502 8.9977 61.1843 9.05217 61.2071 9.11184C61.2299 9.1715 61.2409 9.23518 61.2395 9.29922V9.29922Z" fill="#0B1E13"/>
<path d="M60.7428 7.49888L59.7445 8.06181C59.6728 7.92207 59.6569 7.75944 59.7001 7.60799C59.7432 7.45653 59.842 7.32799 59.9759 7.24928C60.0418 7.21204 60.1145 7.18892 60.1895 7.18137C60.2645 7.17381 60.3402 7.18197 60.412 7.20533C60.4838 7.2287 60.5501 7.26678 60.607 7.31726C60.6639 7.36774 60.7101 7.42954 60.7428 7.49888Z" fill="#0B1E13"/>
<path d="M61.4475 12.5971L62.7474 13.099C62.7188 13.1883 62.6729 13.2708 62.6124 13.3416C62.552 13.4124 62.4782 13.47 62.3955 13.5112C62.3128 13.5523 62.2229 13.576 62.131 13.5809C62.0392 13.5858 61.9473 13.5718 61.8608 13.5398C61.6866 13.4669 61.5465 13.3284 61.4696 13.1529C61.3926 12.9774 61.3847 12.7784 61.4475 12.5971V12.5971Z" fill="#F0997A"/>
<path d="M65.3654 7.89458L64.4529 7.17764C64.4959 7.11493 64.551 7.0618 64.6147 7.02148C64.6785 6.98115 64.7496 6.95447 64.8237 6.94305C64.8979 6.93163 64.9735 6.9357 65.0461 6.95503C65.1186 6.97436 65.1866 7.00854 65.2458 7.05549C65.3672 7.15311 65.4472 7.29456 65.4695 7.45067C65.4917 7.60679 65.4545 7.76567 65.3654 7.89458Z" fill="#0B1E13"/>
<path d="M65.0872 9.16113C65.0836 9.25478 65.0532 9.3453 64.9996 9.42141C64.9461 9.49753 64.8718 9.55589 64.7861 9.58923C64.7003 9.62257 64.6068 9.62943 64.5173 9.60894C64.4277 9.58845 64.3461 9.54153 64.2824 9.474C64.2188 9.40648 64.176 9.32133 64.1594 9.22916C64.1427 9.13699 64.153 9.04185 64.1889 8.9556C64.2248 8.86934 64.2847 8.79576 64.3612 8.74402C64.4377 8.69228 64.5275 8.66465 64.6192 8.66458C64.7456 8.66737 64.8658 8.72117 64.9535 8.81422C65.0412 8.90727 65.0893 9.03199 65.0872 9.16113V9.16113Z" fill="#0B1E13"/>
<path d="M62.8308 8.82393L62.9842 11.6943L64.4505 11.1845L62.8308 8.82393Z" fill="#F0997A"/>
<path d="M53.7598 17.783C51.6072 17.9901 50.1487 18.5504 48.2872 22.244C47.2108 24.3682 44.0598 31.2137 44.0598 31.2137L35.9067 35.2206C35.9067 35.2206 36.8583 37.7113 36.6451 38.7575C36.6451 38.7575 39.4529 38.0644 42.4609 37.2147C45.4689 36.365 46.8235 35.8871 47.6814 35.2923C48.3158 34.8595 53.0527 25.7331 53.0527 25.7331C54.6646 23.1627 55.1533 19.732 53.7598 17.783Z" fill="#455A64"/>
<path d="M39.5592 15.7543L39.2862 15.7304C37.4814 15.5749 35.8107 14.6943 34.6408 13.282C33.471 11.8696 32.8976 10.0409 33.0466 8.19726V8.19726C33.191 6.42045 34.0198 4.77474 35.3509 3.62129C36.682 2.46784 38.4068 1.90089 40.1468 2.04485L40.9111 2.11124C41.7733 2.1839 42.613 2.42935 43.3822 2.83355C44.1515 3.23776 44.8352 3.7928 45.3944 4.46697C45.9535 5.14114 46.3772 5.92123 46.6411 6.76267C46.9049 7.6041 47.0039 8.4904 46.9324 9.37092V9.37092C46.7833 11.216 45.9228 12.925 44.5401 14.1222C43.1574 15.3193 41.3657 15.9064 39.5592 15.7543V15.7543Z" fill="#0B1E13"/>
<path d="M34.4091 14.3178C34.2766 14.3178 34.1492 14.339 34.014 14.3443C33.1326 14.3709 32.2513 14.2249 31.3699 14.2912C30.1532 14.3815 28.8663 14.9949 28.4139 16.15C28.0655 17.0448 28.2527 18.1388 27.7042 18.9221C27.3298 19.4532 26.698 19.7187 26.1443 20.0719C24.3244 21.2535 23.6536 23.9274 25.2083 25.6481C27.374 28.0379 31.2139 26.4766 32.6985 24.1053C33.2912 23.1574 33.6396 22.0183 34.4741 21.2827C35.3763 20.4861 36.684 20.3188 37.594 19.5461C37.9951 19.2012 38.3028 18.7569 38.4877 18.2557C38.6725 17.7545 38.7282 17.2132 38.6495 16.6837C38.4944 15.9599 38.1982 15.2753 37.7785 14.6709C37.571 14.2989 37.3008 13.9673 36.9804 13.6911C36.372 13.2264 36.2602 13.6486 35.6805 13.9567C35.2816 14.1548 34.8509 14.2771 34.4091 14.3178V14.3178Z" fill="#0B1E13"/>
<path d="M20.0865 80.5896C20.3023 81.1393 20.1307 81.7898 20.0605 83.2317C19.9834 84.1783 19.9608 85.1288 19.9929 86.0782C20.0163 86.4181 20.1047 86.7314 20.1541 87.0633C20.1836 87.3263 20.299 87.5714 20.4817 87.759C20.5598 87.8449 20.6571 87.9101 20.7654 87.9489C20.8736 87.9878 20.9895 87.9992 21.103 87.9821C21.1914 87.9609 21.2746 87.9214 21.3474 87.8662C21.4203 87.8109 21.4814 87.741 21.5268 87.6608C21.7001 87.353 21.8429 87.0283 21.9532 86.6916C22.0676 89.1186 24.5218 90.9534 22.9229 91.4473C22.3613 91.6131 21.7727 91.662 21.1922 91.5914C20.6117 91.5207 20.0509 91.3317 19.5431 91.0357C19.1205 90.7895 18.7635 90.4412 18.5032 90.0214C17.9832 88.9141 18.1002 87.8971 18.1496 86.9783C18.2614 84.9417 17.9988 83.869 17.8896 82.8413C17.7909 81.604 19.7225 80.3825 20.0865 80.5896Z" fill="#0B1E13"/>
<path d="M37.2351 81.4871C37.1899 81.4959 37.1486 81.5191 37.1173 81.5535C37.0859 81.5879 37.0662 81.6316 37.0609 81.6783C36.9985 81.9438 36.9127 82.451 36.8009 82.9051C36.6423 83.5131 36.4577 84.392 36.5253 84.8912C36.5929 85.3904 37.2169 85.9135 38.4206 86.349C39.146 86.6146 40.4251 87.3501 40.9944 87.9422C41.6912 88.6777 43.2355 89.3549 44.3014 89.4584C45.552 89.5779 46.8805 89.323 47.2393 88.4202C47.39 88.0405 46.7947 87.5784 45.2426 86.6862C45.2426 86.6862 44.4626 86.1977 44.0181 85.8737C41.7952 84.2327 41.0568 83.3379 40.4797 81.7765L37.2351 81.4871Z" fill="#0B1E13"/>
<path d="M41.2673 83.0883C40.5809 82.2253 40.4873 81.4313 40.6849 79.9284C40.8825 78.4255 42.8792 65.3241 43.3862 62.0554C44.2415 56.5535 45.0527 40.7782 44.8447 36.9067L30.3142 37.1244C29.0949 39.7346 28.1173 42.9874 27.9535 48.1759C27.8313 52.135 27.067 62.8467 27.067 62.8467C27.067 62.8467 25.2055 64.3044 23.7496 67.3315C22.4497 70.0081 20.5856 79.4159 20.5856 79.4159C20.4483 79.8194 20.2815 80.2117 20.0864 80.5896C19.7459 80.9611 19.5324 81.4353 19.4781 81.9412C19.3765 83.5822 19.4444 85.2297 19.6809 86.8562C19.8056 87.6979 20.2788 88.2662 21.0692 88.6485C21.2439 88.7361 21.4361 88.7815 21.6307 88.7813C21.7312 88.7877 21.8307 88.7576 21.9115 88.6963C22.0571 88.5636 21.9531 88.2237 21.9375 88.0564C21.9128 87.7845 21.905 87.5114 21.9141 87.2385C21.9323 86.7075 21.9895 86.0543 22.0571 85.5259C22.1992 84.3342 22.4606 83.1606 22.8371 82.0235C22.8371 82.0235 22.9644 81.7579 23.162 81.3596C23.162 81.3596 30.2466 68.8451 32.2277 65.8127C33.7876 63.4229 35.3475 53.9008 36.676 48.7203L37.5859 61.3703C37.08 62.645 36.6817 63.9615 36.3952 65.3055C35.987 67.613 37.0218 76.8349 37.2999 80.109C37.3521 80.7159 37.3206 81.3273 37.2063 81.9252V81.9252C37.2869 83.3405 38.2931 83.8424 39.3096 84.708C39.8166 85.1382 42.0602 86.7393 43.4512 87.1217C44.5821 87.435 45.0475 87.0102 45.2294 86.6915C43.7825 85.6436 42.4537 84.4351 41.2673 83.0883V83.0883Z" fill="#FFA8A7"/>
<path d="M33.3406 32.082C33.3406 32.082 31.9679 33.5902 29.7294 37.4457C28.2319 40.0373 27.5273 49.87 27.5273 49.87C27.5273 49.87 28.5127 52.6342 35.8338 52.6688L36.5878 49.3682L36.8478 52.6581L37.4015 52.6396C43.7321 52.374 44.9983 50.9906 44.9983 50.9906C44.9983 50.9906 45.227 39.9391 44.5043 32.9131C42.2892 34.3018 35.7636 34.3018 33.3406 32.082Z" fill="#455A64"/>
<path d="M36.5955 49.3682L38.3399 43.9301C38.3399 43.9301 41.0542 43.8132 43.251 42.3741C43.251 42.3741 42.6921 44.3709 38.9431 44.7214L37.0088 50.0533L36.858 52.6661L36.5955 49.3682Z" fill="#0B1E13"/>
<path d="M31.2165 50.5073C28.6609 49.7107 27.6989 48.5477 27.6989 48.5477L27.5352 49.8462C27.5352 49.8462 28.5205 52.6104 35.8416 52.6449L36.177 51.1791C34.4992 51.2233 32.8251 50.9966 31.2165 50.5073V50.5073Z" fill="#37474F"/>
<path d="M45.0058 50.9906C45.0058 50.9906 45.0058 50.4595 45.0266 49.5567C43.7288 50.1333 42.3654 50.5418 40.9683 50.7729C39.5682 51.0059 38.1517 51.1205 36.7332 51.1154L36.8553 52.6661L37.4091 52.6475C43.7397 52.3634 45.0058 50.9906 45.0058 50.9906Z" fill="#37474F"/>
<path d="M46.3683 23.3141C45.1021 21.0013 42.4295 18.7018 41.5664 17.9078L36.2653 17.5998C35.2254 17.5839 34.3882 17.6635 33.837 17.9184C32.6957 18.4495 32.5137 19.5541 32.3941 20.8738C32.2589 22.321 32.2122 22.9582 32.4513 25.3879L32.9713 28.4867L33.0519 28.962C33.0675 29.0443 33.0779 29.1239 33.0909 29.2089C33.2924 30.4007 33.0652 31.6266 32.4513 32.6608C31.089 34.9471 29.7579 36.7049 29.2275 38.6645C29.8498 38.4398 30.4224 38.0914 30.9122 37.6396C31.7416 36.9253 32.2329 36.6013 32.9167 35.741C32.9167 35.741 32.8933 37.0899 34.0918 38.9274C34.398 39.4024 34.7556 39.8406 35.1578 40.2338C37.3806 42.3979 44.3924 43.7309 45.0189 37.4511C45.0189 37.4511 44.499 33.4309 44.4444 32.0899C44.7044 30.9481 45.4297 28.9912 45.4843 28.5504C47.1872 27.167 47.299 24.9975 46.3683 23.3141Z" fill="#61C589"/>
<path opacity="0.1" d="M42.939 28.1309C42.939 28.1309 41.1009 29.586 39.0055 28.8265C38.4169 28.6361 37.8864 28.2939 37.4652 27.8329C37.0439 27.372 36.7461 26.8079 36.6006 26.1951C36.6006 26.1951 36.377 28.6433 39.0237 29.4798C41.5767 30.2843 42.939 28.1309 42.939 28.1309Z" fill="black"/>
<path d="M44.5692 5.11443C45.2867 5.63222 46.0615 7.64761 45.6403 11.697C45.2841 15.1303 44.1246 15.8871 43.5604 16.0863C42.9962 16.2854 41.9485 16.0464 40.9346 15.7836L40.7682 17.8494C40.7682 17.8494 42.0525 19.6524 41.8861 20.5924C41.7197 21.5323 39.7412 21.5908 38.4855 20.5525C37.6755 19.847 37.0003 18.9944 36.494 18.0379L36.9256 12.6874C36.9256 12.6874 36.1951 13.4017 35.1213 12.5361C34.9031 12.3597 34.7244 12.1376 34.5975 11.8846C34.4705 11.6317 34.3982 11.3539 34.3854 11.0699C34.3725 10.786 34.4195 10.5026 34.5232 10.2388C34.6268 9.97499 34.7847 9.73699 34.9861 9.54087C35.7011 8.91155 36.9282 9.37623 37.1154 10.3375C37.1154 10.3375 38.7507 10.5366 41.0308 9.49573C41.9161 9.10071 42.6979 8.49817 43.3126 7.73696C43.9274 6.97575 44.3579 6.07729 44.5692 5.11443Z" fill="#FFA8A7"/>
<path d="M41.574 10.4888C41.5673 10.574 41.5362 10.6553 41.4845 10.7226C41.4329 10.7898 41.363 10.8401 41.2836 10.867C41.2041 10.894 41.1187 10.8965 41.0379 10.8742C40.9571 10.852 40.8845 10.8059 40.8292 10.7418C40.7738 10.6776 40.7382 10.5983 40.7267 10.5136C40.7152 10.4289 40.7284 10.3427 40.7645 10.2656C40.8007 10.1885 40.8583 10.124 40.9301 10.0801C41.002 10.0362 41.0848 10.0149 41.1685 10.0188C41.2254 10.0222 41.2811 10.037 41.3324 10.0625C41.3837 10.088 41.4295 10.1237 41.4672 10.1674C41.5049 10.2111 41.5338 10.262 41.5521 10.3172C41.5705 10.3723 41.5779 10.4307 41.574 10.4888V10.4888Z" fill="#0B1E13"/>
<path d="M41.8264 13.4415L42.7858 13.8452C42.7363 13.9757 42.6383 14.0811 42.5132 14.1383C42.3881 14.1955 42.2459 14.1999 42.1176 14.1505C41.9888 14.0936 41.8866 13.988 41.8323 13.8559C41.7781 13.7237 41.7759 13.5753 41.8264 13.4415V13.4415Z" fill="#F28F8F"/>
<path d="M45.1517 9.44792L44.3457 8.77081C44.386 8.71457 44.4372 8.66736 44.496 8.6321C44.5549 8.59684 44.6202 8.57429 44.6879 8.56583C44.7557 8.55737 44.8244 8.56318 44.8898 8.58291C44.9553 8.60264 45.0161 8.63586 45.0685 8.68053C45.176 8.77314 45.2447 8.90443 45.2601 9.04725C45.2756 9.19008 45.2368 9.33351 45.1517 9.44792Z" fill="#0B1E13"/>
<path d="M44.8733 10.4463C44.8676 10.5316 44.8375 10.6134 44.7866 10.6813C44.7358 10.7492 44.6665 10.8004 44.5874 10.8284C44.5083 10.8563 44.4228 10.8599 44.3417 10.8386C44.2607 10.8173 44.1875 10.7722 44.1314 10.7087C44.0753 10.6452 44.0387 10.5663 44.0262 10.4817C44.0138 10.3972 44.026 10.3107 44.0613 10.2332C44.0966 10.1557 44.1534 10.0905 44.2248 10.0457C44.2961 10.001 44.3788 9.97871 44.4625 9.98164C44.5772 9.98782 44.6849 10.0402 44.7619 10.1273C44.8389 10.2144 44.8789 10.3291 44.8733 10.4463V10.4463Z" fill="#0B1E13"/>
<path d="M42.8246 10.0241L42.6816 12.6343L44.057 12.3236L42.8246 10.0241Z" fill="#F28F8F"/>
<path d="M40.9294 15.7835C39.8582 15.5472 37.6822 14.7055 37.4092 13.7788C37.512 14.2457 37.7525 14.6691 38.0981 14.9922C38.7143 15.6295 40.8748 16.4739 40.8748 16.4739L40.9294 15.7835Z" fill="#F28F8F"/>
<path d="M36.0052 21.4925C35.9246 18.7416 34.9029 17.6556 34.9029 17.6556C33.1558 17.5971 30.9381 17.6556 29.3834 20.4224C28.6035 21.8111 24.0746 29.5461 24.0746 29.5461C23.0632 28.7495 18.0689 24.424 17.7544 24.1054C17.4493 23.7781 17.2482 23.3644 17.1772 22.9184C17.1772 22.5015 17.1538 22.0634 17.133 21.8563C17.0646 21.2385 16.9096 20.634 16.6728 20.0613C16.6039 19.8295 16.5535 19.5924 16.522 19.3523C16.52 19.3222 16.512 19.2928 16.4986 19.2659C16.4852 19.239 16.4666 19.2151 16.444 19.1956C16.3966 19.1757 16.3433 19.1757 16.2959 19.1956C15.9995 19.278 15.9189 19.4426 15.8305 19.7426C15.7694 20.0752 15.7694 20.4165 15.8305 20.749C15.8591 21.0145 15.9033 21.2801 15.7265 21.3836C15.4665 21.4819 15.3001 21.2031 15.2065 21.0703C14.8373 20.441 13.8598 18.5823 13.4178 17.8653C13.3306 17.6949 13.197 17.5538 13.0331 17.4591C12.7471 17.3316 12.5313 17.5175 12.5131 17.8361C12.5166 17.9564 12.544 18.0748 12.5937 18.184C12.8147 18.7628 13.5244 20.1755 13.6752 20.5525C13.7298 20.6906 13.8052 20.9402 13.6752 21.0092C13.4542 21.1818 13.1344 20.8977 12.9109 20.6694C11.9775 19.7214 11.7305 19.5382 11.091 18.9434C11.0083 18.8487 10.894 18.7888 10.7705 18.7756C10.6469 18.7623 10.523 18.7966 10.4228 18.8717C10.3503 18.9427 10.3067 19.0391 10.301 19.1416C10.2952 19.244 10.3276 19.3449 10.3916 19.424C10.48 19.5568 10.74 19.8781 10.9506 20.1303C11.312 20.5552 12.4481 21.8297 12.4481 21.8297C12.1075 21.8908 11.8709 22.4033 12.1881 22.9158C12.0746 23.0971 12.019 23.3098 12.0287 23.5247C12.0385 23.7397 12.1133 23.9462 12.2427 24.116C12.6706 24.7801 13.2773 25.3039 13.9898 25.6242C14.4862 25.7636 14.9357 26.0391 15.2897 26.4208C16.1997 27.4112 19.582 31.1234 22.0077 33.5079C22.7408 34.2275 23.8666 35.1011 24.7011 35.125C25.2211 35.1515 25.9698 34.3045 26.3494 33.8425C26.8226 33.2609 32.2874 25.4596 32.2874 25.4596L32.8074 27.4537C35.0069 25.7331 36.0858 24.2461 36.0052 21.4925Z" fill="#FFA8A7"/>
<path d="M32.2849 25.4702L33.6186 23.6539L32.5813 26.5961L32.2849 25.4702Z" fill="#F28F8F"/>
<path d="M93.9585 92.6182C94.0599 93.0245 94.2705 94.1769 96.3686 94.1769C98.4666 94.1769 99.6651 93.3007 100.079 92.212C100.492 91.1233 100.253 90.3187 100.216 89.3681C100.18 88.4175 100.869 87.8174 101.02 87.3049C101.246 86.5482 100.627 85.5099 100.627 85.5099L93.9585 92.6182Z" fill="#0B1E13"/>
<path d="M73.8019 85.6347C73.7468 85.8038 73.7269 85.9828 73.7435 86.1602C73.76 86.3376 73.8127 86.5096 73.8981 86.665C74.0515 86.8748 75.458 87.9183 77.1921 87.7006C78.4665 87.5747 79.6926 87.1376 80.7668 86.426C81.7808 85.8153 82.4827 85.7276 83.5149 85.7303C84.547 85.733 85.2542 85.5338 85.3348 85.2683C85.4855 84.8036 85.4959 84.5062 85.275 84.5142L73.8019 85.6347Z" fill="#0B1E13"/>
<path d="M99.8938 83.8583C99.9302 84.9603 96.631 85.9162 96.7116 84.5168L95.5754 80.4489L99.262 80.0585L99.8938 83.8583Z" fill="#B16668"/>
<path d="M84.5494 81.272C83.5094 82.0315 82.5605 82.1244 81.3438 81.5004L80.7302 74.8435H85.2071L84.5494 81.272Z" fill="#B16668"/>
<path d="M94.156 38.168C95.0113 46.203 96.5374 61.3305 96.5374 61.3305C96.5374 61.3305 97.8868 63.4308 98.3885 67.3076C99.0099 72.0872 99.6261 82.0845 99.6261 82.0845C99.0832 82.4151 98.4761 82.6203 97.8473 82.6859C97.2186 82.7515 96.5834 82.6758 95.9863 82.4643C95.9863 82.4643 90.7268 67.7989 89.7467 63.0803C88.8965 58.9752 87.3938 51.6465 87.3938 51.6465L85.5141 62.0368C86.0035 63.8602 86.2079 65.751 86.1199 67.6395C86.0289 69.8514 85.0124 78.2263 85.0124 78.2263C84.7082 79.1424 81.8926 79.0787 80.9904 78.4919C80.9904 78.4919 79.5501 64.4186 79.3603 62.0872C79.1003 59.0283 78.6479 38.1892 78.6479 38.1892L94.156 38.168Z" fill="#37474F"/>
<path d="M87.3939 51.6465L86.354 46.7049C86.354 46.7049 84.0141 46.1579 82.332 44.7851C82.332 44.7851 82.9482 46.3623 85.5168 47.5679L86.5776 52.1775L85.6546 61.2296L87.3939 51.6465Z" fill="#0B1E13"/>
<path d="M96.7118 84.5168L96.5948 84.092C96.457 84.2301 96.4778 84.3575 96.4726 84.7319C96.4726 85.032 96.4726 85.3214 96.4336 85.7224C96.3843 86.2438 96.2913 86.7599 96.1555 87.2651C95.8955 88.4388 95.5783 88.9061 94.7697 90.3559C94.58 90.7011 94.1146 91.272 93.9898 91.6438C93.865 92.0155 93.813 92.6926 94.2498 92.9502C95.4743 93.691 97.3696 93.4812 98.5681 92.913C99.0173 92.7042 99.3983 92.368 99.6657 91.9443C99.933 91.5206 100.075 91.0273 100.076 90.5232C100.076 90.2231 100.014 89.9258 100.003 89.6284C100.01 88.9419 100.18 88.2675 100.5 87.6634C100.685 87.316 100.833 86.9492 100.942 86.5694C101.103 85.8764 100.783 85.1754 100.518 84.554C100.289 84.0229 100.021 83.3007 99.842 83.383L99.9122 83.853C99.7276 84.1451 99.1323 84.4956 98.4433 84.6363C97.9753 84.7293 96.7612 84.87 96.7118 84.5168Z" fill="#455A64"/>
<path d="M81.206 80.1116C81.0474 80.1116 80.8837 80.2418 80.6003 80.6639C80.2108 81.2483 79.706 81.743 79.1184 82.1164C78.0628 82.8758 76.3963 83.6406 74.6804 84.2938C73.7471 84.6523 73.5703 85.34 73.8797 85.956C74.3633 86.4526 76.009 87.605 78.7154 86.7526C80.3949 86.2216 80.985 85.3506 82.1862 85.1939C83.0337 85.0851 84.5052 85.3214 85.3736 84.6071C85.6466 83.938 85.4282 83.2635 85.3398 82.3342C85.2514 81.4048 84.9628 79.9205 84.6742 79.9789L84.6222 80.4701C84.3934 81.5455 81.9704 81.6517 81.284 80.9481L81.206 80.1116Z" fill="#455A64"/>
<path d="M87.755 15.8924C90.4433 16.0624 93.9582 16.0278 94.1194 18.8425C94.3794 23.1627 93.5605 32.228 93.5605 32.228L94.4314 39.6789C92.4581 41.8324 83.6421 42.9556 78.6062 39.7984C78.6062 39.7984 78.627 25.0427 79.0222 22.5971C79.7345 18.1973 81.362 16.2668 82.9453 16.142L87.755 15.8924Z" fill="#61C589"/>
<path d="M83.0618 10.2042C85.402 9.7905 86.9706 7.51762 86.5656 5.12757C86.1605 2.73752 83.9351 1.13536 81.595 1.54905C79.2549 1.96275 77.6863 4.23563 78.0913 6.62568C78.4964 9.01573 80.7217 10.6179 83.0618 10.2042Z" fill="#0B1E13"/>
<path d="M89.9312 8.5451C89.9312 8.5451 89.432 11.9253 89.185 12.4909C89.0189 12.8405 88.7276 13.1115 88.3713 13.2477L88.2803 10.8977L89.9312 8.5451Z" fill="#0B1E13"/>
<path d="M88.7772 3.81861C89.0186 3.77443 89.2666 3.78737 89.5023 3.85641C89.7381 3.92546 89.9551 4.04879 90.1369 4.21691C90.7453 4.77984 90.5347 6.67044 89.9315 8.5451L88.6316 8.78143L88.7772 3.81861Z" fill="#0B1E13"/>
<path d="M88.2258 8.80533C88.4858 8.94872 88.842 8.41234 89.1461 8.04591C89.4503 7.67947 90.4798 7.14044 91.0752 8.24506C91.6706 9.34967 90.7762 10.9588 89.9599 11.2854C88.5534 11.8324 88.2804 10.9057 88.2804 10.9057L88.4962 16.3598C86.8505 18.8053 81.8874 18.9115 83.8165 16.3598L83.7255 14.7506C83.7255 14.7506 82.4386 15.0321 81.799 14.971C80.7331 14.8675 80.0207 14.0576 79.6307 12.9105C79.0068 11.0703 78.7208 9.56741 78.9418 5.85791C79.181 1.78729 83.7775 1.46334 86.3565 2.90784C88.9355 4.35234 88.2258 8.80533 88.2258 8.80533Z" fill="#B16668"/>
<path d="M88.2621 9.25672C88.3947 9.25672 88.8471 8.36984 89.1565 8.04589C89.5854 7.59714 88.7769 3.8186 88.7769 3.8186C88.9127 3.47335 88.9439 3.09442 88.8665 2.73085C88.7891 2.36728 88.6066 2.0358 88.3427 1.77931C87.6798 1.12078 86.7646 0.321529 83.9698 0.834008C81.9861 1.19513 79.8282 1.97315 78.011 1.19513C77.8835 1.79173 77.9332 2.4136 78.1537 2.9812C78.3741 3.54881 78.7553 4.03637 79.2485 4.38153C79.2485 4.38153 79.9114 4.7639 81.6065 4.87011C83.3016 4.97633 85.9015 4.56475 86.2576 4.49306C86.7412 4.39481 86.8738 4.87011 87.2118 6.17388C87.5108 7.3263 87.8175 9.27531 88.2621 9.25672Z" fill="#0B1E13"/>
<path d="M88.7897 4.116L90.3288 3.1468C90.2717 3.04049 90.194 2.94714 90.1005 2.87242C90.0071 2.7977 89.8997 2.74316 89.7849 2.71212C89.6701 2.68108 89.5504 2.67418 89.433 2.69185C89.3155 2.70951 89.2028 2.75137 89.1017 2.81489C88.8962 2.94949 88.7492 3.15961 88.6911 3.40178C88.6331 3.64395 88.6684 3.89965 88.7897 4.116V4.116Z" fill="#0B1E13"/>
<path d="M83.7153 14.7373C83.7153 14.7373 86.0552 14.108 86.8351 13.6088C87.3039 13.3216 87.6772 12.8969 87.9063 12.39C87.811 12.8897 87.6183 13.3647 87.3395 13.7867C86.7831 14.6099 83.7491 15.3799 83.7491 15.3799L83.7153 14.7373Z" fill="#9A4A4D"/>
<path d="M83.9153 8.4681C83.9246 8.56238 83.9609 8.65177 84.0196 8.72515C84.0783 8.79853 84.1568 8.85267 84.2454 8.88084C84.334 8.909 84.4287 8.90995 84.5178 8.88355C84.6069 8.85716 84.6865 8.8046 84.7466 8.7324C84.8067 8.6602 84.8446 8.57155 84.8558 8.47748C84.8669 8.38341 84.8508 8.28807 84.8093 8.20331C84.7678 8.11856 84.7028 8.04813 84.6224 8.00078C84.5421 7.95344 84.4499 7.93127 84.3572 7.93704C84.294 7.94206 84.2324 7.95981 84.1759 7.98926C84.1194 8.01871 84.0691 8.05929 84.0281 8.10865C83.987 8.158 83.9559 8.21518 83.9365 8.27687C83.9172 8.33856 83.9099 8.40355 83.9153 8.4681V8.4681Z" fill="#0B1E13"/>
<path d="M84.3079 6.61734L85.3478 7.1245C85.4074 6.97967 85.4114 6.8172 85.3589 6.66953C85.3063 6.52186 85.2012 6.39986 85.0644 6.3279C84.9962 6.29555 84.9224 6.27737 84.8473 6.27443C84.7722 6.27149 84.6972 6.28385 84.6268 6.31078C84.5564 6.33772 84.4919 6.3787 84.4372 6.43132C84.3824 6.48395 84.3385 6.54719 84.3079 6.61734V6.61734Z" fill="#0B1E13"/>
<path d="M83.7592 11.8165L82.7063 12.2944C82.7339 12.367 82.7756 12.4332 82.8289 12.489C82.8822 12.5447 82.9459 12.589 83.0163 12.619C83.0867 12.649 83.1623 12.6641 83.2386 12.6636C83.3149 12.663 83.3903 12.6467 83.4603 12.6157C83.6013 12.5475 83.7111 12.4263 83.7668 12.2774C83.8225 12.1285 83.8198 11.9634 83.7592 11.8165V11.8165Z" fill="#9A4A4D"/>
<path d="M79.623 7.3024L80.5018 6.52173C80.4546 6.46095 80.396 6.41056 80.3292 6.37359C80.2625 6.33663 80.1892 6.31386 80.1136 6.30666C80.038 6.29946 79.9618 6.30799 79.8896 6.33172C79.8173 6.35545 79.7505 6.39389 79.6932 6.44472C79.5765 6.5515 79.5042 6.69983 79.4911 6.85931C79.4781 7.01878 79.5253 7.17731 79.623 7.3024V7.3024Z" fill="#0B1E13"/>
<path d="M79.9814 8.57166C79.9908 8.66594 80.0271 8.75533 80.0858 8.82871C80.1445 8.9021 80.223 8.95624 80.3116 8.9844C80.4001 9.01257 80.4949 9.01351 80.584 8.98712C80.6731 8.96073 80.7526 8.90816 80.8127 8.83596C80.8728 8.76376 80.9108 8.67511 80.922 8.58104C80.9331 8.48697 80.9169 8.39163 80.8754 8.30687C80.8339 8.22212 80.769 8.15169 80.6886 8.10434C80.6082 8.057 80.516 8.03483 80.4234 8.0406C80.3602 8.04562 80.2985 8.06337 80.242 8.09282C80.1856 8.12228 80.1353 8.16285 80.0942 8.21221C80.0532 8.26157 80.022 8.31874 80.0027 8.38043C79.9833 8.44212 79.9761 8.50711 79.9814 8.57166V8.57166Z" fill="#0B1E13"/>
<path d="M82.3605 7.96625L82.3761 10.8738L80.863 10.449L82.3605 7.96625Z" fill="#9A4A4D"/>
<path d="M91.4939 16.5642C94.5149 16.7262 95.4118 18.3194 97.2135 21.4208C98.6694 23.9248 102.437 30.0852 102.437 30.0852C103.388 28.9912 107.53 23.014 107.81 22.5892C108.122 22.0395 108.044 21.4049 108.029 20.9402C107.95 20.5489 107.891 20.1536 107.852 19.7559C107.766 18.7735 107.87 18.4867 107.974 17.6635C108.001 17.3918 108.006 17.1182 107.987 16.8457C107.98 16.7763 107.999 16.7066 108.042 16.6519C108.089 16.6186 108.147 16.6053 108.203 16.6147C108.549 16.6386 108.674 16.8059 108.84 17.1165C108.98 17.4704 109.054 17.8476 109.058 18.2291C109.084 18.5239 109.092 18.8425 109.318 18.9115C109.63 18.962 109.755 18.6141 109.838 18.4469C110.114 17.6662 110.798 15.3853 111.138 14.4931C111.198 14.2861 111.315 14.1014 111.476 13.962C111.765 13.7575 112.046 13.9142 112.124 14.2647C112.147 14.3987 112.142 14.5361 112.111 14.6683C111.991 15.3587 111.507 17.0847 111.422 17.5361C111.39 17.7007 111.362 17.9955 111.518 18.0406C111.804 18.184 112.095 17.7963 112.298 17.4936C113.127 16.2323 113.361 15.9747 113.933 15.1755C114.005 15.0521 114.118 14.9601 114.252 14.9175C114.386 14.8748 114.531 14.8844 114.658 14.9445C114.754 15.0065 114.823 15.1032 114.851 15.215C114.88 15.3269 114.866 15.4456 114.812 15.5472C114.742 15.7172 114.526 16.1314 114.344 16.458C114.034 17.0103 113.044 18.6779 113.044 18.6779C113.434 18.6779 113.806 19.1824 113.564 19.8223C113.754 19.9972 113.887 20.2278 113.943 20.4826C114 20.7374 113.978 21.0039 113.881 21.2456C113.655 21.8059 113.171 22.8547 112.321 23.4123C111.806 23.7257 111.377 24.1668 111.073 24.6949C110.278 25.9986 108.395 29.8037 105.978 33.5132C105.268 34.5966 104.373 35.9402 103.378 36.5084C102.382 37.0767 100.812 36.1526 99.8316 35.0905C97.9545 33.0538 92.8848 25.4994 92.8848 25.4994L91.4939 16.5642Z" fill="#B16668"/>
<path d="M91.447 16.2482C91.447 16.2482 89.3671 21.0278 92.8301 25.903L95.5937 30.2285C97.2654 30.2285 99.2335 28.1627 100.229 26.0889C100.229 26.0889 97.7516 21.8908 96.4777 19.817C95.3234 17.9237 94.1378 16.2456 91.447 16.2482Z" fill="#61C589"/>
<path opacity="0.1" d="M91.447 16.2482C91.447 16.2482 89.3671 21.0278 92.8301 25.903L95.5937 30.2285C97.2654 30.2285 99.2335 28.1627 100.229 26.0889C100.229 26.0889 97.7516 21.8908 96.4777 19.817C95.3234 17.9237 94.1378 16.2456 91.447 16.2482Z" fill="black"/>
</g>
</svg>
