<svg width="400" height="406" viewBox="0 0 400 406" fill="none" xmlns="http://www.w3.org/2000/svg">
<path d="M84.41 365.105C81.2115 365.102 78.1088 363.996 75.6109 361.968C43.1091 335.766 19.4438 299.948 7.89611 259.48C-3.65155 219.012 -2.50921 175.9 11.1646 136.121C24.8384 96.3417 50.3661 61.8668 84.2083 37.4764C118.051 13.0859 158.53 -0.0115324 200.035 3.74768e-05C217.727 -0.010842 235.344 2.34707 252.429 7.01277C254.298 7.42542 256.065 8.21837 257.623 9.34375C259.181 10.4691 260.498 11.9036 261.494 13.5603C262.491 15.217 263.146 17.0616 263.42 18.9827C263.695 20.9037 263.583 22.8613 263.09 24.7371C262.598 26.6128 261.737 28.3678 260.557 29.8959C259.378 31.424 257.906 32.6936 256.23 33.6278C254.554 34.562 252.708 35.1414 250.805 35.3311C248.902 35.5208 246.981 35.3168 245.157 34.7315C207.009 24.2605 166.471 27.4597 130.376 43.79C94.2801 60.1203 64.8341 88.5831 47.0006 124.381C29.1671 160.179 24.0365 201.124 32.4736 240.314C40.9107 279.504 62.3995 314.544 93.3183 339.527C95.608 341.382 97.2734 343.914 98.0846 346.772C98.8959 349.63 98.8128 352.673 97.8469 355.481C96.8809 358.289 95.0798 360.723 92.6924 362.447C90.3049 364.171 87.449 365.099 84.5191 365.105H84.41Z" fill="#61C589"/>
<path d="M200.107 406C182.928 405.998 165.819 403.753 149.204 399.319C147.408 398.835 145.725 397.996 144.249 396.851C142.773 395.705 141.533 394.276 140.601 392.645C139.669 391.013 139.063 389.212 138.817 387.342C138.572 385.473 138.691 383.573 139.168 381.751C139.646 379.928 140.472 378.219 141.6 376.721C142.728 375.223 144.136 373.965 145.743 373.019C147.351 372.073 149.126 371.457 150.967 371.208C152.808 370.958 154.68 371.079 156.476 371.564C181.866 378.274 208.434 378.995 234.141 373.67C259.849 368.346 284.014 357.117 304.786 340.846C325.557 324.574 342.383 303.691 353.974 279.798C365.564 255.904 371.612 229.633 371.654 203C371.772 175.83 365.578 149.014 353.575 124.728C341.571 100.443 324.097 79.3719 302.57 63.2252C301.08 62.0959 299.824 60.6797 298.873 59.0576C297.923 57.4355 297.296 55.6393 297.03 53.7714C296.763 51.9035 296.861 50.0006 297.319 48.1712C297.777 46.3419 298.585 44.622 299.697 43.1098C300.81 41.5975 302.205 40.3225 303.803 39.3575C305.401 38.3926 307.171 37.7566 309.011 37.4858C310.851 37.2151 312.725 37.3149 314.527 37.7795C316.33 38.2442 318.024 39.0646 319.514 40.194C343.981 58.7856 363.982 82.7611 378.017 110.321C393.636 141.281 401.156 175.794 399.856 210.552C398.556 245.31 388.48 279.146 370.595 308.814C352.709 338.483 327.613 362.988 297.715 379.98C267.816 396.973 234.118 405.881 199.853 405.852L200.107 406Z" fill="#61C589"/>
<path d="M200.108 343.107C175.873 343.057 152.075 336.555 131.091 324.25C110.106 311.944 92.6685 294.266 80.5195 272.98C78.8251 269.698 78.4462 265.878 79.4618 262.319C80.4775 258.761 82.8091 255.738 85.9692 253.884C89.1293 252.03 92.8732 251.487 96.418 252.371C99.9629 253.254 103.034 255.493 104.99 258.622C119.263 283.672 142.563 302.115 169.975 310.061C197.387 318.007 226.768 314.836 251.92 301.215C255.202 299.629 258.96 299.387 262.413 300.538C265.866 301.69 268.75 304.146 270.467 307.398C272.183 310.651 272.601 314.449 271.632 318.005C270.663 321.561 268.383 324.603 265.265 326.498C245.218 337.38 222.84 343.084 200.108 343.107Z" fill="#40CDE8"/>
<path d="M307.442 280.214C304.964 280.23 302.527 279.567 300.388 278.295C298.779 277.354 297.369 276.101 296.238 274.606C295.107 273.111 294.278 271.404 293.798 269.583C293.319 267.763 293.198 265.864 293.443 263.995C293.688 262.127 294.293 260.326 295.225 258.696C303.386 244.312 308.277 228.258 309.542 211.709C310.807 195.16 308.413 178.533 302.537 163.043C296.66 147.553 287.448 133.591 275.574 122.178C263.701 110.765 249.465 102.189 233.908 97.077C218.351 91.9647 201.865 90.4453 185.655 92.6296C169.445 94.8139 153.921 100.647 140.216 109.702C126.512 118.757 114.974 130.806 106.444 144.969C97.9152 159.131 92.6108 175.048 90.9187 191.558C90.7575 193.454 90.2266 195.298 89.357 196.984C88.4875 198.67 87.2966 200.163 85.8534 201.377C84.4103 202.592 82.7437 203.503 80.9507 204.057C79.1577 204.612 77.2739 204.799 75.4089 204.609C73.5439 204.418 71.7348 203.853 70.0869 202.946C68.4389 202.039 66.9851 200.809 65.8096 199.327C64.6342 197.845 63.7606 196.14 63.2399 194.312C62.7191 192.484 62.5614 190.57 62.776 188.679C64.8128 167.834 71.4236 147.716 82.123 129.804C92.8224 111.892 107.339 96.6395 124.605 85.168C141.872 73.6965 161.451 66.2968 181.904 63.5125C202.357 60.7281 223.165 62.6297 242.799 69.0777C262.433 75.5258 280.395 86.3564 295.366 100.774C310.337 115.192 321.936 132.831 329.311 152.395C336.687 171.959 339.651 192.952 337.987 213.831C336.323 234.711 330.073 254.947 319.696 273.054C318.454 275.236 316.668 277.047 314.516 278.304C312.365 279.562 309.925 280.22 307.442 280.214Z" fill="#40CDE8"/>
<path d="M200.108 280.214C181.241 280.25 163.034 273.167 149.023 260.341C135.013 247.515 126.197 229.862 124.29 210.808C122.382 191.755 127.518 172.661 138.7 157.236C149.882 141.811 166.312 131.155 184.8 127.336C188.421 126.71 192.14 127.538 195.17 129.645C198.2 131.753 200.304 134.974 201.036 138.628C201.768 142.282 201.072 146.082 199.093 149.223C197.115 152.365 194.01 154.602 190.436 155.461C182.511 157.125 175.133 160.804 168.991 166.153C162.849 171.501 158.145 178.345 155.32 186.042C152.494 193.74 151.639 202.039 152.835 210.163C154.031 218.288 157.239 225.971 162.158 232.493C167.077 239.016 173.546 244.164 180.96 247.457C188.374 250.749 196.49 252.077 204.547 251.317C212.605 250.557 220.341 247.734 227.03 243.111C233.719 238.488 239.143 232.218 242.794 224.887C243.601 223.152 244.742 221.599 246.15 220.32C247.558 219.04 249.204 218.06 250.991 217.437C252.779 216.814 254.671 216.561 256.556 216.693C258.441 216.825 260.282 217.339 261.968 218.204C263.654 219.07 265.153 220.27 266.375 221.734C267.596 223.197 268.517 224.894 269.082 226.725C269.647 228.555 269.845 230.482 269.663 232.392C269.482 234.301 268.926 236.155 268.028 237.842C261.707 250.616 252.002 261.349 240.004 268.834C228.006 276.318 214.19 280.259 200.108 280.214Z" fill="#FF805D"/>
<path d="M257.048 192.481C254.281 192.482 251.574 191.661 249.261 190.12C246.948 188.579 245.13 186.384 244.031 183.807C241.568 177.957 237.983 172.663 233.486 168.232C232.118 166.925 231.021 165.355 230.257 163.613C229.494 161.871 229.08 159.992 229.04 158.085C228.999 156.179 229.333 154.284 230.022 152.51C230.711 150.736 231.741 149.12 233.053 147.754C234.364 146.389 235.93 145.303 237.659 144.558C239.388 143.814 241.246 143.427 243.124 143.419C245.003 143.412 246.864 143.784 248.599 144.514C250.334 145.245 251.908 146.319 253.23 147.673C260.362 154.741 266.068 163.154 270.028 172.439C270.771 174.162 271.172 176.017 271.208 177.898C271.244 179.778 270.916 181.647 270.24 183.399C269.565 185.15 268.556 186.749 267.272 188.105C265.988 189.461 264.453 190.546 262.756 191.3C260.958 192.102 259.012 192.505 257.048 192.481Z" fill="#FF805D"/>
</svg>
