<svg width="214" height="173" viewBox="0 0 214 173" fill="none" xmlns="http://www.w3.org/2000/svg">
<path d="M165.798 150.382H201.182C200.504 146.054 197.722 146.815 197.352 140.108C197.167 136.749 200.297 132.556 200.023 128.116C199.799 124.46 196.199 120.715 195.919 116.532C195.667 112.759 198.718 108.577 198.444 104.507C198.158 100.666 194.525 96.9764 194.183 92.9789C193.87 89.0599 196.882 84.8553 196.524 80.9139C196.165 76.9725 192.453 73.3502 192.045 69.4703C191.636 65.4729 194.553 61.1732 194.105 57.3549C193.635 53.2959 189.805 49.7912 189.285 46.0569C188.725 41.8915 191.418 37.4462 190.785 33.8519C190.007 29.4514 185.909 26.2658 185.046 23.0186C183.44 16.9721 183.641 11.1383 181.743 10.7576C179.722 10.3545 179.257 16.0707 177.723 22.4587C176.951 25.6723 172.948 28.9251 172.287 33.3256C171.755 36.892 174.588 41.2309 174.123 45.3739C173.709 49.0858 169.975 52.6521 169.611 56.6887C169.269 60.4845 172.298 64.6723 172.002 68.6361C171.71 72.4936 168.083 76.1719 167.842 80.0909C167.601 84.0099 170.714 88.1081 170.501 91.9768C170.283 95.9406 166.728 99.6861 166.543 103.499C166.353 107.535 169.538 111.606 169.381 115.345C169.208 119.494 165.703 123.295 165.574 126.918C165.418 131.318 168.648 135.383 168.547 138.731C168.334 146.009 165.003 144.497 164.886 150.348L165.798 150.382Z" fill="#FF805D"/>
<path d="M180.987 22.3859V148.747" stroke="#290900" stroke-miterlimit="10"/>
<path d="M186.513 35.6323L180.752 40.6095L176.038 34.3222" stroke="#290900" stroke-miterlimit="10"/>
<path d="M186.513 57.6292L180.752 62.6008L176.038 56.3192" stroke="#290900" stroke-miterlimit="10"/>
<path d="M186.513 78.3162L180.752 83.2878L176.038 77.0061" stroke="#290900" stroke-miterlimit="10"/>
<path d="M186.513 102.928L180.752 107.899L176.038 101.618" stroke="#290900" stroke-miterlimit="10"/>
<path d="M186.513 127.802L180.752 132.774L176.038 126.492" stroke="#290900" stroke-miterlimit="10"/>
<path d="M141.696 150.382H169.012C168.486 147.022 166.342 147.627 166.056 142.454C165.91 139.845 168.323 136.62 168.116 133.194C167.943 130.395 165.166 127.483 164.948 124.236C164.752 121.325 167.125 118.078 166.896 114.954C166.677 111.986 163.861 109.142 163.609 106.057C163.358 102.972 165.692 99.7813 165.418 96.7412C165.143 93.7012 162.271 90.9074 161.969 87.9066C161.667 84.9057 163.906 81.5074 163.559 78.5569C163.195 75.4217 160.239 72.7175 159.842 69.8342C159.394 66.6206 161.488 63.1887 160.995 60.4174C160.396 57.019 157.233 54.5612 156.572 52.053C155.329 47.3838 155.486 42.8825 154.019 42.5857C152.457 42.2722 152.099 46.6895 150.917 51.6219C150.324 54.0965 147.228 56.6103 146.718 60.0198C146.31 62.7744 148.493 66.1223 148.135 69.3192C147.816 72.1857 144.938 74.9178 144.653 78.053C144.389 80.9811 146.73 84.2115 146.5 87.2795C146.276 90.2524 143.482 93.0909 143.286 96.1142C143.091 99.1374 145.526 102.306 145.341 105.296C145.156 108.286 142.43 111.242 142.29 114.187C142.139 117.299 144.597 120.446 144.479 123.335C144.345 126.531 141.64 129.465 141.54 132.264C141.417 135.663 143.914 138.798 143.835 141.385C143.667 146.983 141.097 145.836 141.008 150.342L141.696 150.382Z" fill="#FF805D"/>
<path d="M153.425 51.5827V149.122" stroke="#290900" stroke-miterlimit="10"/>
<path d="M157.686 61.8058L153.241 65.6464L149.602 60.798" stroke="#290900" stroke-miterlimit="10"/>
<path d="M157.686 78.7864L153.241 82.6215L149.602 77.7731" stroke="#290900" stroke-miterlimit="10"/>
<path d="M157.686 94.7537L153.241 98.5888L149.602 93.7404" stroke="#290900" stroke-miterlimit="10"/>
<path d="M157.686 113.75L153.241 117.59L149.602 112.742" stroke="#290900" stroke-miterlimit="10"/>
<path d="M157.686 132.953L153.241 136.794L149.602 131.94" stroke="#290900" stroke-miterlimit="10"/>
<path d="M10.0726 150.382H32.3159C31.8848 147.661 30.1381 148.142 29.9085 143.926C29.791 141.805 31.7561 139.179 31.5881 136.385C31.4482 134.09 29.1807 131.733 29.0072 129.107C28.8448 126.739 30.7819 124.107 30.5916 121.549C30.4124 119.136 28.117 116.812 27.9154 114.304C27.7139 111.796 29.595 109.198 29.3879 106.718C29.1807 104.238 26.8293 101.965 26.5886 99.5238C26.3478 97.0828 28.1674 94.3114 27.8874 91.9096C27.5907 89.3623 25.1833 87.1564 24.8586 84.8106C24.4947 82.196 26.1966 79.3967 25.7991 77.1405C25.3121 74.3747 22.7367 72.3704 22.1936 70.3325C21.1859 66.5255 21.3091 62.864 20.1165 62.6232C18.924 62.3825 18.5545 65.9824 17.5916 69.9798C17.1045 71.9953 14.5907 74.0388 14.1764 76.8101C13.8405 79.0496 15.6209 81.7761 15.3297 84.3795C15.0666 86.7141 12.7208 88.9592 12.4912 91.4953C12.2785 93.8803 14.1708 96.5341 13.9973 99.0031C13.8237 101.472 11.5395 103.74 11.3827 106.203C11.2259 108.666 13.1855 111.242 13.0623 113.671C12.9391 116.101 10.6885 118.52 10.5765 120.916C10.4533 123.452 12.4576 126.011 12.3569 128.362C12.2505 130.966 10.0502 133.356 9.96625 135.64C9.87107 138.406 11.8978 140.959 11.8362 143.064C11.7018 147.633 9.59674 146.687 9.53516 150.342L10.0726 150.382Z" fill="#FF805D"/>
<path d="M19.624 69.9351V149.357" stroke="#290900" stroke-miterlimit="10"/>
<path d="M23.0947 78.2601L19.4724 81.3842L16.5107 77.4371" stroke="#290900" stroke-miterlimit="10"/>
<path d="M23.0947 92.0831L19.4724 95.2128L16.5107 91.2601" stroke="#290900" stroke-miterlimit="10"/>
<path d="M23.0947 105.083L19.4724 108.213L16.5107 104.26" stroke="#290900" stroke-miterlimit="10"/>
<path d="M23.0947 120.552L19.4724 123.682L16.5107 119.729" stroke="#290900" stroke-miterlimit="10"/>
<path d="M23.0947 136.189L19.4724 139.313L16.5107 135.366" stroke="#290900" stroke-miterlimit="10"/>
<path d="M210.659 163.505C210.659 165.705 164.42 167.485 107.376 167.485C50.3317 167.485 4.07031 165.688 4.07031 163.505C4.07031 161.321 50.3149 159.53 107.354 159.53C164.392 159.53 210.659 161.31 210.659 163.505Z" fill="#FF805D"/>
<path opacity="0.5" d="M210.659 163.505C210.659 165.705 164.42 167.485 107.376 167.485C50.3317 167.485 4.07031 165.688 4.07031 163.505C4.07031 161.321 50.3149 159.53 107.354 159.53C164.392 159.53 210.659 161.31 210.659 163.505Z" fill="#FFF7F5"/>
<path d="M22.8027 154.894L63.1743 154.469L155.552 153.125L191.484 150.068L197.782 151.311C197.782 151.311 201.247 148.478 200.979 141.34C200.71 134.202 195.162 122.305 178.243 121.246C161.324 120.188 151.8 131.29 147.837 136.844C143.873 142.398 66.9254 143.982 66.9254 143.982C66.9254 143.982 65.341 128.385 51.3276 124.684C37.3143 120.983 28.3285 125.742 23.0434 131.537C17.7583 137.331 19.3427 152.425 19.3427 152.425L22.8027 154.894Z" fill="#290900" stroke="#290900" stroke-linecap="round" stroke-linejoin="round"/>
<path d="M87.2484 104.63C87.2484 104.63 90.8091 103.891 91.1059 105.671C91.4026 107.451 91.257 108.342 90.3669 108.784C89.0051 109.352 87.4941 109.457 86.0671 109.081C85.7334 108.998 85.4264 108.832 85.1753 108.597C84.9243 108.363 84.7376 108.067 84.6332 107.74C84.5287 107.413 84.51 107.064 84.5787 106.727C84.6474 106.39 84.8014 106.077 85.0258 105.817C85.6564 105.242 86.4204 104.834 87.2484 104.63Z" fill="#FFF7F5" stroke="#290900" stroke-linecap="round" stroke-linejoin="round"/>
<path d="M212.546 129.392C212.25 128.205 206.466 125.093 206.466 125.093C206.466 125.093 201.125 117.255 198.163 114.416C196.547 112.851 194.812 111.414 192.974 110.116C192.974 110.116 199.35 109.523 199.35 108.487C199.35 107.451 197.867 107.3 196.825 107.003C195.784 106.707 188.226 106.858 188.226 106.858H145.374L103.116 109.226L90.0709 110.116C90.0709 110.116 89.4774 108.487 88.2905 108.487C87.296 108.453 86.3048 108.354 85.3232 108.19C85.3232 108.19 84.7298 106.858 86.8069 104.926C88.884 102.995 99.5605 96.4781 99.5605 96.4781C99.4816 95.4785 99.0627 94.536 98.3736 93.8075C97.6463 93.0002 96.7281 92.3881 95.7031 92.0272L90.9611 91.2881C90.2164 91.2881 78.6441 97.5138 62.1954 110.267C62.1954 110.267 39.952 112.048 28.9787 115.754C18.0054 119.46 13.1122 123.463 10.8896 129.096C10.8896 129.096 11.1863 131.027 10.5929 131.621C9.99942 132.214 5.9964 133.547 5.10622 135.03C4.21604 136.514 5.85084 147.633 5.85084 147.633C5.85084 147.633 4.07048 148.82 4.8095 150.012C5.54851 151.205 10.5929 153.422 14.747 154.161C17.3361 154.615 19.9569 154.864 22.5851 154.905H22.7867C22.3387 152.711 22.1229 150.476 22.1428 148.237C22.0977 145.502 22.5976 142.785 23.6131 140.245C24.6287 137.705 26.1397 135.392 28.0581 133.442C29.9766 131.492 32.264 129.943 34.7871 128.885C37.3102 127.828 40.0185 127.283 42.7541 127.283C45.4898 127.283 48.1981 127.828 50.7212 128.885C53.2443 129.943 55.5317 131.492 57.4501 133.442C59.3685 135.392 60.8796 137.705 61.8952 140.245C62.9107 142.785 63.4105 145.502 63.3655 148.237C63.3655 150.561 63.2927 152.627 63.1583 154.48H64.8379L71.8082 154.037L155.513 153.153C155.368 151.658 155.289 150.029 155.289 148.254C155.243 145.421 155.762 142.608 156.814 139.977C157.866 137.347 159.432 134.952 161.419 132.932C163.406 130.913 165.775 129.309 168.388 128.214C171.001 127.119 173.806 126.555 176.64 126.555C179.473 126.555 182.278 127.119 184.891 128.214C187.504 129.309 189.873 130.913 191.86 132.932C193.847 134.952 195.413 137.347 196.465 139.977C197.517 142.608 198.036 145.421 197.99 148.254C197.989 149.286 197.914 150.317 197.766 151.339L205.402 149.738L211.634 143.064C212.103 141.935 212.354 140.726 212.373 139.503C212.395 137.55 212.843 130.579 212.546 129.392Z" fill="#FFF7F5"/>
<path d="M212.396 139.475C212.396 138.524 212.502 136.351 212.581 134.246C181.307 114.299 162.983 124.818 139.558 131.537C114.168 138.815 83.012 126.498 54.459 123.699C38.447 122.131 21.9087 127.058 10.4707 131.721C9.5805 132.354 5.95259 133.625 5.1072 135.03C4.26181 136.435 5.85182 147.633 5.85182 147.633C5.85182 147.633 4.07145 148.82 4.81047 150.012C5.54949 151.205 10.5938 153.422 14.748 154.161C17.3371 154.615 19.9579 154.864 22.5861 154.905H22.7876C22.3397 152.711 22.1239 150.476 22.1438 148.237C22.0987 145.502 22.5985 142.785 23.6141 140.245C24.6297 137.705 26.1407 135.392 28.0591 133.442C29.9775 131.492 32.2649 129.943 34.788 128.885C37.3111 127.828 40.0194 127.284 42.7551 127.284C45.4908 127.284 48.1991 127.828 50.7222 128.885C53.2453 129.943 55.5327 131.492 57.4511 133.442C59.3695 135.392 60.8806 137.705 61.8961 140.245C62.9117 142.785 63.4115 145.502 63.3664 148.237C63.3664 150.561 63.2937 152.627 63.1593 154.48H64.8389L71.8092 154.038L155.514 153.153C155.369 151.658 155.29 150.029 155.29 148.254C155.244 145.421 155.763 142.608 156.815 139.977C157.867 137.347 159.433 134.952 161.42 132.932C163.407 130.913 165.776 129.309 168.389 128.214C171.002 127.119 173.807 126.555 176.641 126.555C179.474 126.555 182.279 127.119 184.892 128.214C187.505 129.309 189.874 130.913 191.861 132.932C193.848 134.952 195.414 137.347 196.466 139.977C197.518 142.608 198.037 145.421 197.991 148.254C197.99 149.286 197.915 150.317 197.767 151.339L205.403 149.738L211.635 143.064C212.115 141.928 212.374 140.709 212.396 139.475Z" fill="#FF805D"/>
<path opacity="0.5" d="M212.396 139.475C212.396 138.524 212.502 136.351 212.581 134.246C181.307 114.299 162.983 124.818 139.558 131.537C114.168 138.815 83.012 126.498 54.459 123.699C38.447 122.131 21.9087 127.058 10.4707 131.721C9.5805 132.354 5.95259 133.625 5.1072 135.03C4.26181 136.435 5.85182 147.633 5.85182 147.633C5.85182 147.633 4.07145 148.82 4.81047 150.012C5.54949 151.205 10.5938 153.422 14.748 154.161C17.3371 154.615 19.9579 154.864 22.5861 154.905H22.7876C22.3397 152.711 22.1239 150.476 22.1438 148.237C22.0987 145.502 22.5985 142.785 23.6141 140.245C24.6297 137.705 26.1407 135.392 28.0591 133.442C29.9775 131.492 32.2649 129.943 34.788 128.885C37.3111 127.828 40.0194 127.284 42.7551 127.284C45.4908 127.284 48.1991 127.828 50.7222 128.885C53.2453 129.943 55.5327 131.492 57.4511 133.442C59.3695 135.392 60.8806 137.705 61.8961 140.245C62.9117 142.785 63.4115 145.502 63.3664 148.237C63.3664 150.561 63.2937 152.627 63.1593 154.48H64.8389L71.8092 154.038L155.514 153.153C155.369 151.658 155.29 150.029 155.29 148.254C155.244 145.421 155.763 142.608 156.815 139.977C157.867 137.347 159.433 134.952 161.42 132.932C163.407 130.913 165.776 129.309 168.389 128.214C171.002 127.119 173.807 126.555 176.641 126.555C179.474 126.555 182.279 127.119 184.892 128.214C187.505 129.309 189.874 130.913 191.861 132.932C193.848 134.952 195.414 137.347 196.466 139.977C197.518 142.608 198.037 145.421 197.991 148.254C197.99 149.286 197.915 150.317 197.767 151.339L205.403 149.738L211.635 143.064C212.115 141.928 212.374 140.709 212.396 139.475Z" fill="#FFF7F5"/>
<path opacity="0.2" d="M114.185 160.168C120.314 160.168 125.282 149.312 125.282 135.92C125.282 122.529 120.314 111.673 114.185 111.673C108.057 111.673 103.089 122.529 103.089 135.92C103.089 149.312 108.057 160.168 114.185 160.168Z" fill="#290900"/>
<path d="M212.546 129.392C212.25 128.205 206.466 125.093 206.466 125.093C206.466 125.093 201.125 117.255 198.163 114.416C196.547 112.851 194.812 111.414 192.974 110.116C192.974 110.116 199.35 109.523 199.35 108.487C199.35 107.451 197.867 107.3 196.825 107.003C195.784 106.707 188.226 106.858 188.226 106.858H145.374L103.116 109.226L90.0709 110.116C90.0709 110.116 89.4774 108.487 88.2905 108.487C87.296 108.453 86.3048 108.354 85.3233 108.19C85.3233 108.19 84.7298 106.858 86.8069 104.926C88.884 102.995 99.5605 96.4781 99.5605 96.4781C99.4816 95.4785 99.0627 94.536 98.3736 93.8075C97.6463 93.0002 96.7281 92.3881 95.7031 92.0272L90.9611 91.2881C90.2164 91.2881 78.6441 97.5138 62.1954 110.267C62.1954 110.267 39.952 112.048 28.9787 115.754C18.0054 119.46 13.1122 123.463 10.8896 129.096C10.8896 129.096 11.1863 131.027 10.5929 131.621C9.99942 132.214 5.9964 133.547 5.10622 135.03C4.21604 136.514 5.85084 147.633 5.85084 147.633C5.85084 147.633 4.07048 148.82 4.8095 150.012C5.54851 151.205 10.5929 153.422 14.747 154.161C17.3361 154.615 19.9569 154.864 22.5851 154.905H22.7867C22.3387 152.711 22.1229 150.476 22.1428 148.237C22.0977 145.502 22.5976 142.785 23.6131 140.245C24.6287 137.705 26.1397 135.392 28.0581 133.442C29.9766 131.492 32.264 129.943 34.7871 128.885C37.3102 127.828 40.0185 127.283 42.7541 127.283C45.4898 127.283 48.1981 127.828 50.7212 128.885C53.2443 129.943 55.5317 131.492 57.4501 133.442C59.3685 135.392 60.8796 137.705 61.8952 140.245C62.9107 142.785 63.4105 145.502 63.3655 148.237C63.3655 150.561 63.2927 152.627 63.1583 154.48H64.8379L71.8082 154.037L155.513 153.153C155.368 151.658 155.289 150.029 155.289 148.254C155.243 145.421 155.762 142.608 156.814 139.977C157.866 137.347 159.432 134.952 161.419 132.932C163.406 130.913 165.775 129.309 168.388 128.214C171.001 127.119 173.806 126.555 176.64 126.555C179.473 126.555 182.278 127.119 184.891 128.214C187.504 129.309 189.873 130.913 191.86 132.932C193.847 134.952 195.413 137.347 196.465 139.977C197.517 142.608 198.036 145.421 197.99 148.254C197.989 149.286 197.914 150.317 197.766 151.339L205.402 149.738L211.634 143.064C212.103 141.935 212.354 140.726 212.373 139.503C212.395 137.55 212.843 130.579 212.546 129.392Z" stroke="#290900" stroke-linecap="round" stroke-linejoin="round"/>
<path d="M94.0739 95.8846C94.0739 95.8846 79.691 104.187 72.5752 113.974L189.267 107.748L181.815 106.858H145.374L103.116 109.226L90.0709 110.116C90.0709 110.116 89.4774 108.487 88.2905 108.487C87.296 108.453 86.3049 108.354 85.3233 108.19C85.3233 108.19 84.7298 106.858 86.8069 104.926C88.884 102.995 99.5605 96.4781 99.5605 96.4781C99.4816 95.4785 99.0627 94.536 98.3736 93.8075C97.6463 93.0002 96.7281 92.3881 95.7031 92.0272L90.9611 91.2881C90.9611 91.2881 94.0739 93.2141 94.0739 95.8846Z" fill="#FFF7F5" stroke="#290900" stroke-linecap="round" stroke-linejoin="round"/>
<path d="M122.504 99.4398C121.861 99.3736 121.217 99.5509 120.699 99.9365C120.181 100.322 119.826 100.888 119.705 101.522C119.467 102.643 119.33 103.782 119.296 104.926C119.296 107.166 122.56 108.784 122.56 108.784L120.925 111.158L127.75 110.861C127.755 110.255 127.655 109.652 127.453 109.081L127.156 108.487C127.156 108.487 128.047 107.451 126.563 104.333C125.079 101.215 123.764 99.5909 122.56 99.4398H122.504Z" fill="#290900" stroke="#290900" stroke-linecap="round" stroke-linejoin="round"/>
<path d="M150.563 107.003L152.803 109.377L183.203 108.487L187.206 108.19C187.206 108.19 188.836 108.19 188.242 106.858C188.045 106.458 187.753 106.114 187.39 105.855C187.028 105.596 186.607 105.431 186.165 105.374C186.165 105.374 185.572 103.594 184.833 103C184.345 102.551 183.715 102.289 183.052 102.261C182.61 102.261 181.865 99.8877 180.813 99.8877C179.76 99.8877 176.513 101.075 176.065 101.371C175.617 101.668 172.656 98.9975 170.584 99.4398C168.513 99.8821 156.795 104.781 155.311 105.374C153.827 105.968 150.563 107.003 150.563 107.003Z" fill="#290900" stroke="#290900" stroke-linecap="round" stroke-linejoin="round"/>
<path d="M164.504 105.968C164.504 105.968 164.207 98.8519 163.317 98.1296C162.427 97.4074 160.798 96.646 160.204 97.0939L159.611 97.5362C159.611 97.5362 158.866 96.646 157.534 97.3906C156.201 98.1352 155.608 101.539 155.608 103.023C155.615 103.467 155.71 103.906 155.888 104.314C156.065 104.721 156.322 105.089 156.643 105.397L154.124 106.88L155.456 108.952L164.504 105.968Z" fill="#290900" stroke="#290900" stroke-linecap="round" stroke-linejoin="round"/>
<path d="M90.0709 110.116C90.0709 110.116 89.4774 108.487 88.2905 108.487C87.296 108.453 86.3049 108.354 85.3233 108.19C85.3233 108.19 84.7298 106.858 86.8069 104.926C88.884 102.995 99.5605 96.4781 99.5605 96.4781C99.4816 95.4785 99.0627 94.536 98.3736 93.8075C97.6463 93.0002 96.7281 92.3881 95.7031 92.0272L90.9611 91.2881C90.9611 91.2881 94.0739 93.2141 94.0739 95.8846C94.0739 95.8846 79.691 104.187 72.5752 113.974L91.6721 112.955L90.0709 110.116Z" fill="#290900" stroke="#290900" stroke-linecap="round" stroke-linejoin="round"/>
<path d="M79.3937 106.707C79.3937 106.707 81.6332 106.113 82.9488 107.3C84.2645 108.487 84.7292 111.303 83.9902 111.779C83.2512 112.255 79.9872 112.221 79.9872 112.221L81.6164 113.705L77.9101 113.851L77.7589 112.221C77.7589 112.221 75.6874 110.889 75.9842 109.254C76.2809 107.619 79.3937 106.707 79.3937 106.707Z" fill="#FFF7F5" stroke="#290900" stroke-linecap="round" stroke-linejoin="round"/>
<path d="M201.422 118.419C201.422 118.419 193.27 112.345 178.591 114.119C163.911 115.894 152.345 121.398 147.603 144.962" stroke="#290900" stroke-linecap="round" stroke-linejoin="round"/>
<path d="M149.232 148.668C149.232 148.668 150.564 147.778 150.122 146.888C149.794 146.266 149.304 145.745 148.704 145.381C148.103 145.016 147.415 144.821 146.712 144.817C144.932 144.817 70.9404 147.336 70.9404 147.336L71.3883 150.594L149.232 148.668Z" stroke="#290900" stroke-linecap="round" stroke-linejoin="round"/>
<path d="M70.9407 147.336C70.9407 147.336 70.9407 138.585 67.979 132.953C65.0173 127.321 60.7008 122.131 50.4777 118.397C40.2546 114.662 22.1599 120.77 22.1599 120.77C17.824 122.682 14.1586 125.847 11.6345 129.857L11.041 130.893" stroke="#290900" stroke-linecap="round" stroke-linejoin="round"/>
<path d="M19.2984 129.359C16.264 132.158 12.9944 133.569 12.0202 132.488C11.0461 131.408 12.6641 128.25 15.6985 125.44C18.733 122.629 21.997 121.23 22.9767 122.31C23.9565 123.391 22.3273 126.548 19.2984 129.359Z" stroke="#290900" stroke-linecap="round" stroke-linejoin="round"/>
<path d="M5.10059 141.407C5.39731 144.548 5.8508 147.633 5.8508 147.633C5.8508 147.633 10.1505 148.965 11.6342 148.82C13.1178 148.674 13.7057 148.226 14.2991 145.707C14.8926 143.187 13.5601 142.292 13.5601 142.292L5.10619 141.401L5.10059 141.407Z" fill="#290900" stroke="#290900" stroke-linecap="round" stroke-linejoin="round"/>
<path d="M129.731 122.277H128.248C127.639 122.275 127.056 122.033 126.626 121.603C126.196 121.172 125.954 120.589 125.952 119.981C125.952 119.372 126.194 118.787 126.624 118.356C127.054 117.925 127.638 117.682 128.248 117.68H129.731C130.033 117.68 130.333 117.74 130.612 117.855C130.891 117.971 131.145 118.14 131.358 118.354C131.572 118.568 131.741 118.821 131.857 119.101C131.973 119.38 132.032 119.679 132.032 119.981C132.031 120.59 131.788 121.174 131.356 121.605C130.925 122.035 130.341 122.277 129.731 122.277Z" fill="#FFF7F5" stroke="#290900" stroke-linecap="round" stroke-linejoin="round"/>
<path d="M125.801 120.961C125.521 120.961 125.252 120.849 125.053 120.651C124.855 120.452 124.743 120.183 124.743 119.903C124.743 119.622 124.855 119.353 125.053 119.154C125.252 118.956 125.521 118.845 125.801 118.845L133.807 118.699C134.086 118.697 134.355 118.805 134.555 118.998C134.756 119.192 134.874 119.456 134.882 119.735C134.885 119.874 134.861 120.012 134.81 120.141C134.76 120.271 134.684 120.389 134.588 120.49C134.492 120.59 134.377 120.67 134.25 120.726C134.123 120.782 133.985 120.812 133.847 120.815L125.84 120.961H125.801Z" fill="#FFF7F5" stroke="#290900" stroke-linecap="round" stroke-linejoin="round"/>
<path d="M179.705 166.105C189.029 164.598 195.366 155.818 193.86 146.493C192.353 137.169 183.572 130.832 174.248 132.339C164.924 133.846 158.587 142.626 160.094 151.95C161.601 161.275 170.381 167.612 179.705 166.105Z" fill="#290900" stroke="#290900" stroke-width="1.00285" stroke-linecap="round" stroke-linejoin="round"/>
<path d="M178.554 159.781C184.938 158.738 189.268 152.717 188.225 146.333C187.181 139.949 181.161 135.62 174.777 136.663C168.393 137.706 164.063 143.727 165.106 150.111C166.15 156.495 172.17 160.824 178.554 159.781Z" fill="#FFF7F5" stroke="#290900" stroke-linecap="round" stroke-linejoin="round"/>
<path d="M181.587 153.155C184.309 150.433 184.309 146.02 181.587 143.298C178.865 140.576 174.452 140.576 171.73 143.298C169.007 146.02 169.007 150.433 171.73 153.155C174.452 155.877 178.865 155.877 181.587 153.155Z" stroke="#290900" stroke-linecap="round" stroke-linejoin="round"/>
<path d="M179.778 148.226C179.779 147.609 179.597 147.006 179.255 146.492C178.913 145.979 178.426 145.578 177.857 145.341C177.287 145.104 176.66 145.042 176.055 145.161C175.449 145.281 174.893 145.578 174.456 146.013C174.02 146.449 173.722 147.005 173.601 147.61C173.481 148.215 173.542 148.842 173.778 149.413C174.014 149.983 174.413 150.47 174.926 150.813C175.439 151.156 176.042 151.339 176.659 151.339C177.069 151.34 177.474 151.26 177.852 151.104C178.231 150.948 178.575 150.718 178.864 150.429C179.154 150.14 179.384 149.797 179.54 149.419C179.697 149.041 179.778 148.635 179.778 148.226V148.226Z" stroke="#290900" stroke-linecap="round" stroke-linejoin="round"/>
<path d="M45.3946 165.872C54.7188 164.365 61.0559 155.585 59.549 146.26C58.042 136.936 49.2617 130.599 39.9375 132.106C30.6134 133.613 24.2763 142.393 25.7832 151.718C27.2902 161.042 36.0705 167.379 45.3946 165.872Z" fill="#290900" stroke="#290900" stroke-width="1.00285" stroke-linecap="round" stroke-linejoin="round"/>
<path d="M45.4676 159.628C51.76 158.129 55.6458 151.813 54.1467 145.52C52.6477 139.228 46.3314 135.342 40.039 136.841C33.7465 138.34 29.8607 144.656 31.3598 150.949C32.8589 157.241 39.1751 161.127 45.4676 159.628Z" fill="#FFF7F5" stroke="#290900" stroke-linecap="round" stroke-linejoin="round"/>
<path d="M44.3964 154.999C48.1418 154.11 50.457 150.352 49.5675 146.607C48.678 142.862 44.9206 140.546 41.1752 141.436C37.4298 142.325 35.1147 146.083 36.0042 149.828C36.8937 153.574 40.651 155.889 44.3964 154.999Z" stroke="#290900" stroke-linecap="round" stroke-linejoin="round"/>
<path d="M45.8809 148.226C45.8809 147.61 45.6984 147.009 45.3563 146.497C45.0143 145.985 44.5281 145.586 43.9593 145.35C43.3905 145.115 42.7646 145.053 42.1608 145.173C41.557 145.293 41.0023 145.59 40.567 146.025C40.1317 146.46 39.8352 147.015 39.7151 147.619C39.595 148.223 39.6566 148.849 39.8922 149.417C40.1278 149.986 40.5268 150.472 41.0387 150.814C41.5506 151.156 42.1524 151.339 42.7681 151.339C43.5937 151.339 44.3854 151.011 44.9692 150.427C45.553 149.843 45.8809 149.052 45.8809 148.226V148.226Z" stroke="#290900" stroke-linecap="round" stroke-linejoin="round"/>
<path d="M135.487 110.822C136.924 114.788 137.474 119.021 137.099 123.223C136.539 130.456 132.273 145.27 132.273 145.27C132.629 145.911 132.745 146.659 132.598 147.378C132.451 148.096 132.052 148.739 131.473 149.189" stroke="#290900" stroke-linecap="round" stroke-linejoin="round"/>
<path d="M72.5753 113.974C71.7581 114.92 71.0414 115.948 70.4366 117.042C69.7144 118.492 69.4736 136.155 69.4736 136.155" stroke="#290900" stroke-linecap="round" stroke-linejoin="round"/>
<path d="M66.2147 112.081C67.3345 111.594 69.0141 109.282 74.9262 104.339C80.8383 99.3949 90.2888 94.0538 90.2888 94.0538L88.4916 92.4526C84.1583 94.7985 74.5623 100.694 62.1781 110.267L60.2578 112.322C60.2578 112.322 65.095 112.563 66.2147 112.081Z" fill="#290900" stroke="#290900" stroke-linecap="round" stroke-linejoin="round"/>
<path d="M62.1397 110.262C61.7478 110.29 58.9485 110.525 55.0127 110.967C55.0127 112.014 60.2754 112.311 60.2754 112.311L62.1397 110.262Z" stroke="#290900" stroke-linecap="round" stroke-linejoin="round"/>
<path d="M205.839 125.468C205.839 125.468 204.826 121.812 200.559 118.565C196.293 115.317 192.341 116.325 191.938 118.262C191.534 120.199 194.474 123.536 197.822 125.261C201.17 126.985 203.941 126.179 205.839 125.468Z" fill="#290900" stroke="#290900" stroke-linecap="round" stroke-linejoin="round"/>
<path d="M195.963 131.027C195.963 131.027 200.195 135.26 201.002 141.34C201.002 141.34 200.739 142.661 202.592 142.661C205.567 142.66 208.518 142.115 211.298 141.054" stroke="#290900" stroke-linecap="round" stroke-linejoin="round"/>
<path d="M212.546 129.392C212.546 129.392 212.356 129.952 208.392 131.822C205.982 132.939 203.376 133.569 200.722 133.675" fill="#FF805D"/>
<path d="M5.10547 135.03C5.10547 135.03 6.91383 132.88 12.9939 135.786C15.3093 136.923 17.7529 137.779 20.2721 138.333" stroke="#290900" stroke-linecap="round" stroke-linejoin="round"/>
<path d="M6.3877 149.536C10.222 150.265 14.119 150.612 18.0216 150.572C18.0216 150.572 16.9635 139.464 25.6861 130.977" stroke="#290900" stroke-linecap="round" stroke-linejoin="round"/>
<path d="M171.996 21.339C168.441 19.3963 166.823 21.0143 165.535 19.3963C164.248 17.7783 169.085 13.5793 159.377 9.38033C159.377 9.38033 158.727 0.332956 145.481 0.00823616C132.235 -0.316484 135.784 9.0556 132.229 11.3174C128.674 13.5793 127.722 10.0466 124.167 12.286C120.612 14.5255 122.23 19.0715 119.319 19.7154C116.407 20.3592 112.533 16.8097 108.978 19.0715C105.423 21.3334 105.423 23.2705 103.805 23.2705C102.187 23.2705 98.962 21.9772 97.0193 23.2705C95.0766 24.5638 92.8203 26.1818 92.8203 26.1818H174.56C174.56 26.1818 175.551 23.2761 171.996 21.339Z" fill="#FF805D"/>
<path opacity="0.5" d="M171.996 21.339C168.441 19.3963 166.823 21.0143 165.535 19.3963C164.248 17.7783 169.085 13.5793 159.377 9.38033C159.377 9.38033 158.727 0.332956 145.481 0.00823616C132.235 -0.316484 135.784 9.0556 132.229 11.3174C128.674 13.5793 127.722 10.0466 124.167 12.286C120.612 14.5255 122.23 19.0715 119.319 19.7154C116.407 20.3592 112.533 16.8097 108.978 19.0715C105.423 21.3334 105.423 23.2705 103.805 23.2705C102.187 23.2705 98.962 21.9772 97.0193 23.2705C95.0766 24.5638 92.8203 26.1818 92.8203 26.1818H174.56C174.56 26.1818 175.551 23.2761 171.996 21.339Z" fill="#FFF7F5"/>
<path d="M87.7031 59.3816C85.2061 58.0212 84.0696 59.1577 83.1626 58.0212C82.2556 56.8846 85.6596 53.9342 78.8461 50.9837C78.8461 50.9837 78.3926 44.6293 69.0877 44.3997C59.7828 44.1702 62.2965 50.7597 59.7828 52.3442C57.269 53.9286 56.6027 51.4372 54.1058 53.0272C51.6088 54.6172 52.7453 57.7916 50.7018 58.2507C48.6583 58.7098 45.9374 56.2072 43.4236 57.7916C40.9098 59.376 40.9266 60.7421 39.7901 60.7421C38.6536 60.7421 36.3861 59.8351 35.0257 60.7421C33.6652 61.6491 32.0752 62.7856 32.0752 62.7856H89.517C89.517 62.7856 90.1945 60.7421 87.7031 59.3816Z" fill="#FFF7F5"/>
<path opacity="0.5" d="M87.7031 59.3816C85.2061 58.0212 84.0696 59.1577 83.1626 58.0212C82.2556 56.8846 85.6596 53.9342 78.8461 50.9837C78.8461 50.9837 78.3926 44.6293 69.0877 44.3997C59.7828 44.1702 62.2965 50.7597 59.7828 52.3442C57.269 53.9286 56.6027 51.4372 54.1058 53.0272C51.6088 54.6172 52.7453 57.7916 50.7018 58.2507C48.6583 58.7098 45.9374 56.2072 43.4236 57.7916C40.9098 59.376 40.9266 60.7421 39.7901 60.7421C38.6536 60.7421 36.3861 59.8351 35.0257 60.7421C33.6652 61.6491 32.0752 62.7856 32.0752 62.7856H89.517C89.517 62.7856 90.1945 60.7421 87.7031 59.3816Z" fill="#FFF7F5"/>
<path opacity="0.5" d="M125.969 169.607C125.969 171.477 120.08 173 112.818 173C105.557 173 99.667 171.477 99.667 169.607C99.667 167.737 105.557 166.248 112.818 166.248C120.08 166.248 125.969 167.743 125.969 169.607Z" fill="#FF805D"/>
<path d="M123.59 112.093H113.77L105.451 112.479C105.451 112.479 105.507 113.319 105.596 114.718L105.77 114.858L104.616 114.332C104.616 114.332 103.099 137.354 103.648 138.451C104.197 139.548 109.991 165.005 109.991 165.005C109.991 165.005 108.216 168.152 107.533 169.243C106.85 170.335 108.759 170.744 109.851 170.335C110.943 169.926 113.132 166.511 113.132 165.688C113.132 164.865 112.331 138.653 112.331 138.653L114.089 120.989H114.252C114.252 120.989 115.209 130.109 114.291 153.063C114.123 157.318 115.147 163.314 115.271 165.509C115.506 166.48 115.568 167.484 115.455 168.476C115.226 169.758 116.155 171.964 117.779 172.311C119.402 172.659 119.638 170.917 119.173 169.059C118.708 167.2 118.272 165.509 118.272 165.509C119.15 161.03 120.545 148.349 121.631 142.437C124.917 124.701 123.59 112.093 123.59 112.093Z" fill="#290900" stroke="#290900" stroke-linecap="round" stroke-linejoin="round"/>
<path d="M125.001 85.5496L116.962 82.2688L112.41 82.1512L103.284 85.7792L105.462 106.701L104.617 114.31C106.461 114.615 108.258 115.157 109.963 115.922C112.981 117.232 118.49 118.414 120.601 117.495C121.781 116.998 122.884 116.334 123.876 115.525L123.316 107.099L125.001 85.5496Z" fill="#FF805D" stroke="#290900" stroke-linecap="round" stroke-linejoin="round"/>
<path d="M103.284 85.7736C102.621 85.8322 101.983 86.0541 101.428 86.4195C100.872 86.7849 100.415 87.2824 100.098 87.8674C99.029 89.8718 98.4915 99.3726 98.8946 100.442C99.2977 101.511 100.233 102.581 102.103 101.114C103.193 100.277 104.112 99.2373 104.807 98.0513L103.284 85.7736Z" fill="#FFF7F5" stroke="#290900" stroke-linecap="round" stroke-linejoin="round"/>
<path d="M125.001 85.5496C125.001 85.5496 127.801 85.0569 128.31 87.1956C128.819 89.3343 131.109 95.6271 130.314 98.1689C129.519 100.711 126.434 100.576 124.296 99.2382C122.157 97.9002 125.001 85.5496 125.001 85.5496Z" fill="#FFF7F5" stroke="#290900" stroke-linecap="round" stroke-linejoin="round"/>
<path d="M113.339 85.8575L110.797 88.2705C110.797 88.2705 109.33 84.1219 109.33 83.4501C109.33 82.7783 111.066 80.774 111.066 80.774L117.622 80.6452L120.029 83.5845L118.025 88.1362L115.225 85.9919L113.339 85.8575Z" fill="#FFF7F5" stroke="#290900" stroke-linecap="round" stroke-linejoin="round"/>
<path d="M117.952 83.9988L114.582 88.7464L111.278 83.9988V76.1327H117.952V83.9988Z" fill="#FFF7F5" stroke="#290900" stroke-linecap="round" stroke-linejoin="round"/>
<path d="M110.556 74.0445C110.556 74.0445 109.319 73.7197 109.437 74.6043C109.554 75.4889 109.935 77.0789 110.556 77.454L111.178 77.8235L110.556 74.0445Z" fill="#FFF7F5" stroke="#290900" stroke-linecap="round" stroke-linejoin="round"/>
<path d="M118.843 74.0445C118.843 74.0445 120.08 73.7197 119.963 74.6043C119.845 75.4889 119.465 77.0789 118.843 77.454L118.222 77.8235L118.843 74.0445Z" fill="#FFF7F5" stroke="#290900" stroke-linecap="round" stroke-linejoin="round"/>
<path d="M119.403 72.6056C119.402 71.9268 119.254 71.2563 118.97 70.64C118.686 70.0237 118.271 69.4763 117.755 69.0353C117.239 68.5944 116.634 68.2703 115.981 68.0855C115.328 67.9006 114.642 67.8593 113.972 67.9644C113.301 68.0694 112.661 68.3184 112.096 68.6942C111.531 69.07 111.054 69.5637 110.697 70.1413C110.341 70.719 110.114 71.367 110.032 72.0407C109.949 72.7144 110.014 73.398 110.221 74.0444L111.419 79.6766L113.603 82.7447H115.713L117.835 80.0686L119.134 74.1788C119.312 73.6735 119.403 73.1415 119.403 72.6056Z" fill="#FFF7F5" stroke="#290900" stroke-linecap="round" stroke-linejoin="round"/>
<path d="M118.412 72.2361C118.148 72.8251 117.982 73.4527 117.919 74.0948C118.022 74.8657 118.229 75.619 118.535 76.3343C118.535 76.3343 120.024 73.2382 119.895 72.1241C119.766 71.01 118.283 71.8666 118.412 72.2361Z" fill="#290900" stroke="#290900" stroke-linecap="round" stroke-linejoin="round"/>
<path d="M110.618 76.0711C110.618 76.0711 110.618 75.8808 110.646 75.5897C110.719 74.7946 110.904 73.2494 111.357 72.9807C111.979 72.6056 111.917 70.6573 111.917 70.6573C111.917 70.6573 111.055 71.6314 114.028 72.6224C117.001 73.6133 119.408 73.227 121.015 71.1219C122.622 69.0169 121.144 67.5332 120.892 68.2778C120.64 69.0225 120.153 70.0078 119.285 69.2688C118.417 68.5298 117.045 67.0294 114.582 67.0294C113.84 67.0556 113.118 67.2763 112.488 67.6693C111.858 68.0624 111.343 68.6139 110.993 69.2688C110.597 69.462 110.261 69.7596 110.021 70.1295C109.782 70.4994 109.647 70.9277 109.633 71.3683C109.627 72.8575 110.618 76.0711 110.618 76.0711Z" fill="#290900" stroke="#290900" stroke-linecap="round" stroke-linejoin="round"/>
<path d="M119.324 72.1577C117.572 72.2249 116.077 71.038 114.56 70.0078C113.042 68.9777 112.001 70.0078 112.001 70.0078C112.121 69.4413 112.423 68.9298 112.862 68.5524C113.302 68.1749 113.853 67.9526 114.431 67.9195C116.497 67.7852 117.174 70.6237 119.094 70.8756" stroke="#FFF7F5" stroke-width="0.5" stroke-linecap="round" stroke-linejoin="round"/>
<path d="M110.243 75.9704L110.036 73.9493" stroke="#290900" stroke-linecap="round" stroke-linejoin="round"/>
<path d="M118.977 75.9704L119.447 74.05" stroke="#290900" stroke-linecap="round" stroke-linejoin="round"/>
<path d="M114.521 75.3545H110.602L111.016 76.6422C111.053 76.762 111.128 76.867 111.228 76.9424C111.329 77.0177 111.45 77.0596 111.576 77.0621H113.591C113.722 77.0562 113.847 77.0083 113.947 76.9256C114.048 76.8428 114.12 76.7297 114.151 76.603L114.521 75.3545Z" fill="#290900"/>
<path d="M118.843 75.3545H114.924L115.338 76.6422C115.377 76.7611 115.452 76.8652 115.552 76.9404C115.652 77.0155 115.773 77.058 115.898 77.0621H117.908C118.043 77.0623 118.174 77.0172 118.281 76.934C118.388 76.8508 118.463 76.7342 118.496 76.603L118.843 75.3545Z" fill="#290900"/>
<path d="M115.741 75.808H113.837C113.802 75.8088 113.766 75.8024 113.733 75.7891C113.7 75.7759 113.671 75.7561 113.645 75.731C113.62 75.7059 113.601 75.676 113.587 75.643C113.574 75.6101 113.568 75.5748 113.568 75.5393C113.568 75.5035 113.574 75.468 113.587 75.4347C113.6 75.4015 113.62 75.3712 113.645 75.3456C113.67 75.3201 113.7 75.2998 113.733 75.2859C113.766 75.2721 113.801 75.2649 113.837 75.265H115.741C115.813 75.265 115.883 75.2939 115.935 75.3453C115.986 75.3967 116.015 75.4665 116.015 75.5393C116.015 75.575 116.008 75.6105 115.994 75.6434C115.98 75.6764 115.96 75.7063 115.934 75.7313C115.909 75.7563 115.879 75.776 115.845 75.7892C115.812 75.8024 115.776 75.8088 115.741 75.808Z" fill="#290900"/>
<path d="M115.484 78.3498C115.484 78.3498 115.17 78.8201 114.806 78.8201C114.442 78.8201 114.123 78.3498 114.123 78.3498" stroke="#290900" stroke-width="0.75" stroke-linecap="round" stroke-linejoin="round"/>
<path d="M114.14 79.895C114.873 79.8342 115.571 79.5554 116.144 79.0944" stroke="#290900" stroke-width="0.75" stroke-linecap="round" stroke-linejoin="round"/>
<path d="M130.196 96.0302C130.196 96.0302 131.003 98.9695 128.993 100.039C128.237 100.442 124.715 99.7757 120.567 98.7007C116.418 97.6258 114.145 96.8252 114.145 96.8252L102.506 96.5565C102.506 96.5565 101.436 94.4178 103.066 93.1973C104.695 91.9768 110.562 93.7292 110.562 93.7292L122.599 93.9979C124.531 93.2547 126.661 93.2071 128.623 93.8635" fill="#FFF7F5"/>
<path d="M130.196 96.0302C130.196 96.0302 131.003 98.9695 128.993 100.039C128.237 100.442 124.715 99.7757 120.567 98.7007C116.418 97.6258 114.145 96.8252 114.145 96.8252L102.506 96.5565C102.506 96.5565 101.436 94.4178 103.066 93.1973C104.695 91.9768 110.562 93.7292 110.562 93.7292L122.599 93.9979C124.531 93.2547 126.661 93.2071 128.623 93.8635" stroke="#290900" stroke-linecap="round" stroke-linejoin="round"/>
<path d="M100.927 96.8252C100.927 96.8252 103.726 94.5522 105.876 93.746C108.026 92.9398 119.923 92.6766 119.923 92.6766C119.923 92.6766 123.282 93.746 122.599 94.0147C121.916 94.2834 119.24 94.5746 118.053 95.0841C116.866 95.5935 109.89 100.436 101.464 101.64C99.6167 101.903 99.1856 101.774 98.7881 99.9045" fill="#FFF7F5"/>
<path d="M100.927 96.8252C100.927 96.8252 103.726 94.5522 105.876 93.746C108.026 92.9398 119.923 92.6766 119.923 92.6766C119.923 92.6766 123.282 93.746 122.599 94.0147C121.916 94.2834 119.24 94.5746 118.053 95.0841C116.866 95.5935 109.89 100.436 101.464 101.64C99.6167 101.903 99.1856 101.774 98.7881 99.9045" stroke="#290900" stroke-linecap="round" stroke-linejoin="round"/>
<path d="M117.975 92.8278L118.199 94.7481H118.988L119.1 92.7102L117.975 92.8278Z" fill="#290900" stroke="#290900" stroke-linecap="round" stroke-linejoin="round"/>
<path d="M108.967 116.728C110.822 117.692 112.394 119.122 113.53 120.877" stroke="#FFF7F5" stroke-width="0.75" stroke-linecap="round" stroke-linejoin="round"/>
<path d="M106.268 117.143C106.268 117.143 108.647 117.031 111.665 119.007" stroke="#FFF7F5" stroke-width="0.75" stroke-linecap="round" stroke-linejoin="round"/>
</svg>
